G04 start of page 10 for group -3984 idx -3984 *
G04 Title: Programming/Power Daughterboard, fab *
G04 Creator: pcb 20110918 *
G04 CreationDate: Sat 06 Dec 2014 07:46:43 PM GMT UTC *
G04 For: jjmcd *
G04 Format: Gerber/RS-274X *
G04 PCB-Dimensions: 236220 393701 *
G04 PCB-Coordinate-Origin: lower left *
%MOIN*%
%FSLAX25Y25*%
%LNFAB*%
%ADD65C,0.0100*%
%ADD64C,0.0075*%
%ADD63C,0.0060*%
%ADD62R,0.0080X0.0080*%
G54D62*X222809Y379553D02*X226009D01*
X222809D02*Y376353D01*
X226009D01*
Y379553D02*Y376353D01*
X222809Y300813D02*X226009D01*
X222809D02*Y297613D01*
X226009D01*
Y300813D02*Y297613D01*
X222124Y222072D02*X225324D01*
X222124D02*Y218872D01*
X225324D01*
Y222072D02*Y218872D01*
X222809Y143332D02*X226009D01*
X222809D02*Y140132D01*
X226009D01*
Y143332D02*Y140132D01*
X222124Y64592D02*X225324D01*
X222124D02*Y61392D01*
X225324D01*
Y64592D02*Y61392D01*
X10550Y379986D02*X13750D01*
X10550D02*Y376786D01*
X13750D01*
Y379986D02*Y376786D01*
X10597Y300813D02*X13797D01*
X10597D02*Y297613D01*
X13797D01*
Y300813D02*Y297613D01*
X9912Y222072D02*X13112D01*
X9912D02*Y218872D01*
X13112D01*
Y222072D02*Y218872D01*
X10597Y143332D02*X13797D01*
X10597D02*Y140132D01*
X13797D01*
Y143332D02*Y140132D01*
X9912Y64592D02*X13112D01*
X9912D02*Y61392D01*
X13112D01*
Y64592D02*Y61392D01*
X13400Y406551D02*X16600D01*
X13400D02*Y403351D01*
X16600D01*
Y406551D02*Y403351D01*
G54D63*X135000Y407201D02*X136500Y404201D01*
X138000Y407201D01*
X136500Y404201D02*Y401201D01*
X139800Y404501D02*X142050D01*
X139800Y401201D02*X142800D01*
X139800Y407201D02*Y401201D01*
Y407201D02*X142800D01*
X147600D02*X148350Y406451D01*
X145350Y407201D02*X147600D01*
X144600Y406451D02*X145350Y407201D01*
X144600Y406451D02*Y404951D01*
X145350Y404201D01*
X147600D01*
X148350Y403451D01*
Y401951D01*
X147600Y401201D02*X148350Y401951D01*
X145350Y401201D02*X147600D01*
X144600Y401951D02*X145350Y401201D01*
X98000Y406001D02*X99200Y407201D01*
Y401201D01*
X98000D02*X100250D01*
X102050Y401951D02*X102800Y401201D01*
X102050Y406451D02*Y401951D01*
Y406451D02*X102800Y407201D01*
X104300D01*
X105050Y406451D01*
Y401951D01*
X104300Y401201D02*X105050Y401951D01*
X102800Y401201D02*X104300D01*
X102050Y402701D02*X105050Y405701D01*
X45000Y401951D02*X45750Y401201D01*
X45000Y406451D02*Y401951D01*
Y406451D02*X45750Y407201D01*
X47250D01*
X48000Y406451D01*
Y401951D01*
X47250Y401201D02*X48000Y401951D01*
X45750Y401201D02*X47250D01*
X45000Y402701D02*X48000Y405701D01*
X49800Y401201D02*X50550D01*
X52350Y406001D02*X53550Y407201D01*
Y401201D01*
X52350D02*X54600D01*
X56400Y406451D02*X57150Y407201D01*
X59400D01*
X60150Y406451D01*
Y404951D01*
X56400Y401201D02*X60150Y404951D01*
X56400Y401201D02*X60150D01*
X61950Y401951D02*X62700Y401201D01*
X61950Y406451D02*Y401951D01*
Y406451D02*X62700Y407201D01*
X64200D01*
X64950Y406451D01*
Y401951D01*
X64200Y401201D02*X64950Y401951D01*
X62700Y401201D02*X64200D01*
X61950Y402701D02*X64950Y405701D01*
X165696Y367701D02*G75*G03X167296Y367701I800J0D01*G01*
G75*G03X165696Y367701I-800J0D01*G01*
X203696D02*G75*G03X205296Y367701I800J0D01*G01*
G75*G03X203696Y367701I-800J0D01*G01*
X165696Y288961D02*G75*G03X167296Y288961I800J0D01*G01*
G75*G03X165696Y288961I-800J0D01*G01*
X203696D02*G75*G03X205296Y288961I800J0D01*G01*
G75*G03X203696Y288961I-800J0D01*G01*
X165011Y210220D02*G75*G03X166611Y210220I800J0D01*G01*
G75*G03X165011Y210220I-800J0D01*G01*
X203011D02*G75*G03X204611Y210220I800J0D01*G01*
G75*G03X203011Y210220I-800J0D01*G01*
X165696Y131480D02*G75*G03X167296Y131480I800J0D01*G01*
G75*G03X165696Y131480I-800J0D01*G01*
X203696D02*G75*G03X205296Y131480I800J0D01*G01*
G75*G03X203696Y131480I-800J0D01*G01*
X165011Y52740D02*G75*G03X166611Y52740I800J0D01*G01*
G75*G03X165011Y52740I-800J0D01*G01*
X203011D02*G75*G03X204611Y52740I800J0D01*G01*
G75*G03X203011Y52740I-800J0D01*G01*
X14200Y419951D02*G75*G03X15800Y419951I800J0D01*G01*
G75*G03X14200Y419951I-800J0D01*G01*
X135000Y422201D02*X136500Y419201D01*
X138000Y422201D01*
X136500Y419201D02*Y416201D01*
X139800Y419501D02*X142050D01*
X139800Y416201D02*X142800D01*
X139800Y422201D02*Y416201D01*
Y422201D02*X142800D01*
X147600D02*X148350Y421451D01*
X145350Y422201D02*X147600D01*
X144600Y421451D02*X145350Y422201D01*
X144600Y421451D02*Y419951D01*
X145350Y419201D01*
X147600D01*
X148350Y418451D01*
Y416951D01*
X147600Y416201D02*X148350Y416951D01*
X145350Y416201D02*X147600D01*
X144600Y416951D02*X145350Y416201D01*
X98000Y421001D02*X99200Y422201D01*
Y416201D01*
X98000D02*X100250D01*
X102050Y416951D02*X102800Y416201D01*
X102050Y421451D02*Y416951D01*
Y421451D02*X102800Y422201D01*
X104300D01*
X105050Y421451D01*
Y416951D01*
X104300Y416201D02*X105050Y416951D01*
X102800Y416201D02*X104300D01*
X102050Y417701D02*X105050Y420701D01*
X45000Y416951D02*X45750Y416201D01*
X45000Y421451D02*Y416951D01*
Y421451D02*X45750Y422201D01*
X47250D01*
X48000Y421451D01*
Y416951D01*
X47250Y416201D02*X48000Y416951D01*
X45750Y416201D02*X47250D01*
X45000Y417701D02*X48000Y420701D01*
X49800Y416201D02*X50550D01*
X52350Y416951D02*X53100Y416201D01*
X52350Y421451D02*Y416951D01*
Y421451D02*X53100Y422201D01*
X54600D01*
X55350Y421451D01*
Y416951D01*
X54600Y416201D02*X55350Y416951D01*
X53100Y416201D02*X54600D01*
X52350Y417701D02*X55350Y420701D01*
X57150Y416951D02*X57900Y416201D01*
X57150Y418151D02*Y416951D01*
Y418151D02*X58200Y419201D01*
X59100D01*
X60150Y418151D01*
Y416951D01*
X59400Y416201D02*X60150Y416951D01*
X57900Y416201D02*X59400D01*
X57150Y420251D02*X58200Y419201D01*
X57150Y421451D02*Y420251D01*
Y421451D02*X57900Y422201D01*
X59400D01*
X60150Y421451D01*
Y420251D01*
X59100Y419201D02*X60150Y420251D01*
X61950Y416951D02*X62700Y416201D01*
X61950Y421451D02*Y416951D01*
Y421451D02*X62700Y422201D01*
X64200D01*
X64950Y421451D01*
Y416951D01*
X64200Y416201D02*X64950Y416951D01*
X62700Y416201D02*X64200D01*
X61950Y417701D02*X64950Y420701D01*
X59485Y323901D02*X61885Y321501D01*
X59485D02*X61885Y323901D01*
X49485D02*X51885Y321501D01*
X49485D02*X51885Y323901D01*
X39485D02*X41885Y321501D01*
X39485D02*X41885Y323901D01*
X29485D02*X31885Y321501D01*
X29485D02*X31885Y323901D01*
X19485D02*X21885Y321501D01*
X19485D02*X21885Y323901D01*
X9485D02*X11885Y321501D01*
X9485D02*X11885Y323901D01*
X139485Y388901D02*X141885Y386501D01*
X139485D02*X141885Y388901D01*
X129485D02*X131885Y386501D01*
X129485D02*X131885Y388901D01*
X119485D02*X121885Y386501D01*
X119485D02*X121885Y388901D01*
X109485D02*X111885Y386501D01*
X109485D02*X111885Y388901D01*
X99485D02*X101885Y386501D01*
X99485D02*X101885Y388901D01*
X89485D02*X91885Y386501D01*
X89485D02*X91885Y388901D01*
X59485Y245161D02*X61885Y242761D01*
X59485D02*X61885Y245161D01*
X49485D02*X51885Y242761D01*
X49485D02*X51885Y245161D01*
X39485D02*X41885Y242761D01*
X39485D02*X41885Y245161D01*
X29485D02*X31885Y242761D01*
X29485D02*X31885Y245161D01*
X19485D02*X21885Y242761D01*
X19485D02*X21885Y245161D01*
X9485D02*X11885Y242761D01*
X9485D02*X11885Y245161D01*
X139485Y310161D02*X141885Y307761D01*
X139485D02*X141885Y310161D01*
X129485D02*X131885Y307761D01*
X129485D02*X131885Y310161D01*
X119485D02*X121885Y307761D01*
X119485D02*X121885Y310161D01*
X109485D02*X111885Y307761D01*
X109485D02*X111885Y310161D01*
X99485D02*X101885Y307761D01*
X99485D02*X101885Y310161D01*
X89485D02*X91885Y307761D01*
X89485D02*X91885Y310161D01*
X58800Y166420D02*X61200Y164020D01*
X58800D02*X61200Y166420D01*
X48800D02*X51200Y164020D01*
X48800D02*X51200Y166420D01*
X38800D02*X41200Y164020D01*
X38800D02*X41200Y166420D01*
X28800D02*X31200Y164020D01*
X28800D02*X31200Y166420D01*
X18800D02*X21200Y164020D01*
X18800D02*X21200Y166420D01*
X8800D02*X11200Y164020D01*
X8800D02*X11200Y166420D01*
X138800Y231420D02*X141200Y229020D01*
X138800D02*X141200Y231420D01*
X128800D02*X131200Y229020D01*
X128800D02*X131200Y231420D01*
X118800D02*X121200Y229020D01*
X118800D02*X121200Y231420D01*
X108800D02*X111200Y229020D01*
X108800D02*X111200Y231420D01*
X98800D02*X101200Y229020D01*
X98800D02*X101200Y231420D01*
X88800D02*X91200Y229020D01*
X88800D02*X91200Y231420D01*
X59485Y87680D02*X61885Y85280D01*
X59485D02*X61885Y87680D01*
X49485D02*X51885Y85280D01*
X49485D02*X51885Y87680D01*
X39485D02*X41885Y85280D01*
X39485D02*X41885Y87680D01*
X29485D02*X31885Y85280D01*
X29485D02*X31885Y87680D01*
X19485D02*X21885Y85280D01*
X19485D02*X21885Y87680D01*
X9485D02*X11885Y85280D01*
X9485D02*X11885Y87680D01*
X139485Y152680D02*X141885Y150280D01*
X139485D02*X141885Y152680D01*
X129485D02*X131885Y150280D01*
X129485D02*X131885Y152680D01*
X119485D02*X121885Y150280D01*
X119485D02*X121885Y152680D01*
X109485D02*X111885Y150280D01*
X109485D02*X111885Y152680D01*
X99485D02*X101885Y150280D01*
X99485D02*X101885Y152680D01*
X89485D02*X91885Y150280D01*
X89485D02*X91885Y152680D01*
X58800Y8940D02*X61200Y6540D01*
X58800D02*X61200Y8940D01*
X48800D02*X51200Y6540D01*
X48800D02*X51200Y8940D01*
X38800D02*X41200Y6540D01*
X38800D02*X41200Y8940D01*
X28800D02*X31200Y6540D01*
X28800D02*X31200Y8940D01*
X18800D02*X21200Y6540D01*
X18800D02*X21200Y8940D01*
X8800D02*X11200Y6540D01*
X8800D02*X11200Y8940D01*
X138800Y73940D02*X141200Y71540D01*
X138800D02*X141200Y73940D01*
X128800D02*X131200Y71540D01*
X128800D02*X131200Y73940D01*
X118800D02*X121200Y71540D01*
X118800D02*X121200Y73940D01*
X108800D02*X111200Y71540D01*
X108800D02*X111200Y73940D01*
X98800D02*X101200Y71540D01*
X98800D02*X101200Y73940D01*
X88800D02*X91200Y71540D01*
X88800D02*X91200Y73940D01*
X13800Y436151D02*X16200Y433751D01*
X13800D02*X16200Y436151D01*
X135000Y437201D02*X136500Y434201D01*
X138000Y437201D01*
X136500Y434201D02*Y431201D01*
X139800Y434501D02*X142050D01*
X139800Y431201D02*X142800D01*
X139800Y437201D02*Y431201D01*
Y437201D02*X142800D01*
X147600D02*X148350Y436451D01*
X145350Y437201D02*X147600D01*
X144600Y436451D02*X145350Y437201D01*
X144600Y436451D02*Y434951D01*
X145350Y434201D01*
X147600D01*
X148350Y433451D01*
Y431951D01*
X147600Y431201D02*X148350Y431951D01*
X145350Y431201D02*X147600D01*
X144600Y431951D02*X145350Y431201D01*
X100250Y437201D02*X101000Y436451D01*
X98750Y437201D02*X100250D01*
X98000Y436451D02*X98750Y437201D01*
X98000Y436451D02*Y431951D01*
X98750Y431201D01*
X100250Y434501D02*X101000Y433751D01*
X98000Y434501D02*X100250D01*
X98750Y431201D02*X100250D01*
X101000Y431951D01*
Y433751D02*Y431951D01*
X102800D02*X103550Y431201D01*
X102800Y436451D02*Y431951D01*
Y436451D02*X103550Y437201D01*
X105050D01*
X105800Y436451D01*
Y431951D01*
X105050Y431201D02*X105800Y431951D01*
X103550Y431201D02*X105050D01*
X102800Y432701D02*X105800Y435701D01*
X45000Y431951D02*X45750Y431201D01*
X45000Y436451D02*Y431951D01*
Y436451D02*X45750Y437201D01*
X47250D01*
X48000Y436451D01*
Y431951D01*
X47250Y431201D02*X48000Y431951D01*
X45750Y431201D02*X47250D01*
X45000Y432701D02*X48000Y435701D01*
X49800Y431201D02*X50550D01*
X52350Y431951D02*X53100Y431201D01*
X52350Y436451D02*Y431951D01*
Y436451D02*X53100Y437201D01*
X54600D01*
X55350Y436451D01*
Y431951D01*
X54600Y431201D02*X55350Y431951D01*
X53100Y431201D02*X54600D01*
X52350Y432701D02*X55350Y435701D01*
X57150Y436451D02*X57900Y437201D01*
X59400D01*
X60150Y436451D01*
X59400Y431201D02*X60150Y431951D01*
X57900Y431201D02*X59400D01*
X57150Y431951D02*X57900Y431201D01*
Y434501D02*X59400D01*
X60150Y436451D02*Y435251D01*
Y433751D02*Y431951D01*
Y433751D02*X59400Y434501D01*
X60150Y435251D02*X59400Y434501D01*
X61950Y431951D02*X62700Y431201D01*
X61950Y433151D02*Y431951D01*
Y433151D02*X63000Y434201D01*
X63900D01*
X64950Y433151D01*
Y431951D01*
X64200Y431201D02*X64950Y431951D01*
X62700Y431201D02*X64200D01*
X61950Y435251D02*X63000Y434201D01*
X61950Y436451D02*Y435251D01*
Y436451D02*X62700Y437201D01*
X64200D01*
X64950Y436451D01*
Y435251D01*
X63900Y434201D02*X64950Y435251D01*
X45131Y355358D02*Y352158D01*
X43531Y353758D02*X46731D01*
X45131Y276618D02*Y273418D01*
X43531Y275018D02*X46731D01*
X44446Y197877D02*Y194677D01*
X42846Y196277D02*X46046D01*
X45131Y119137D02*Y115937D01*
X43531Y117537D02*X46731D01*
X44446Y40397D02*Y37197D01*
X42846Y38797D02*X46046D01*
X15000Y451551D02*Y448351D01*
X13400Y449951D02*X16600D01*
X135000Y452201D02*X136500Y449201D01*
X138000Y452201D01*
X136500Y449201D02*Y446201D01*
X139800Y449501D02*X142050D01*
X139800Y446201D02*X142800D01*
X139800Y452201D02*Y446201D01*
Y452201D02*X142800D01*
X147600D02*X148350Y451451D01*
X145350Y452201D02*X147600D01*
X144600Y451451D02*X145350Y452201D01*
X144600Y451451D02*Y449951D01*
X145350Y449201D01*
X147600D01*
X148350Y448451D01*
Y446951D01*
X147600Y446201D02*X148350Y446951D01*
X145350Y446201D02*X147600D01*
X144600Y446951D02*X145350Y446201D01*
X98000Y452201D02*X101000D01*
X98000D02*Y449201D01*
X98750Y449951D01*
X100250D01*
X101000Y449201D01*
Y446951D01*
X100250Y446201D02*X101000Y446951D01*
X98750Y446201D02*X100250D01*
X98000Y446951D02*X98750Y446201D01*
X45000Y446951D02*X45750Y446201D01*
X45000Y451451D02*Y446951D01*
Y451451D02*X45750Y452201D01*
X47250D01*
X48000Y451451D01*
Y446951D01*
X47250Y446201D02*X48000Y446951D01*
X45750Y446201D02*X47250D01*
X45000Y447701D02*X48000Y450701D01*
X49800Y446201D02*X50550D01*
X52350Y446951D02*X53100Y446201D01*
X52350Y451451D02*Y446951D01*
Y451451D02*X53100Y452201D01*
X54600D01*
X55350Y451451D01*
Y446951D01*
X54600Y446201D02*X55350Y446951D01*
X53100Y446201D02*X54600D01*
X52350Y447701D02*X55350Y450701D01*
X57150Y451451D02*X57900Y452201D01*
X59400D01*
X60150Y451451D01*
X59400Y446201D02*X60150Y446951D01*
X57900Y446201D02*X59400D01*
X57150Y446951D02*X57900Y446201D01*
Y449501D02*X59400D01*
X60150Y451451D02*Y450251D01*
Y448751D02*Y446951D01*
Y448751D02*X59400Y449501D01*
X60150Y450251D02*X59400Y449501D01*
X61950Y452201D02*X64950D01*
X61950D02*Y449201D01*
X62700Y449951D01*
X64200D01*
X64950Y449201D01*
Y446951D01*
X64200Y446201D02*X64950Y446951D01*
X62700Y446201D02*X64200D01*
X61950Y446951D02*X62700Y446201D01*
X187496Y330701D02*Y329101D01*
Y330701D02*X188883Y331501D01*
X187496Y330701D02*X186109Y331501D01*
X197496Y330701D02*Y329101D01*
Y330701D02*X198883Y331501D01*
X197496Y330701D02*X196109Y331501D01*
X177496Y330701D02*Y329101D01*
Y330701D02*X178883Y331501D01*
X177496Y330701D02*X176109Y331501D01*
X182496Y340701D02*Y339101D01*
Y340701D02*X183883Y341501D01*
X182496Y340701D02*X181109Y341501D01*
X192496Y340701D02*Y339101D01*
Y340701D02*X193883Y341501D01*
X192496Y340701D02*X191109Y341501D01*
X172496Y340701D02*Y339101D01*
Y340701D02*X173883Y341501D01*
X172496Y340701D02*X171109Y341501D01*
X187496Y251961D02*Y250361D01*
Y251961D02*X188883Y252761D01*
X187496Y251961D02*X186109Y252761D01*
X197496Y251961D02*Y250361D01*
Y251961D02*X198883Y252761D01*
X197496Y251961D02*X196109Y252761D01*
X177496Y251961D02*Y250361D01*
Y251961D02*X178883Y252761D01*
X177496Y251961D02*X176109Y252761D01*
X182496Y261961D02*Y260361D01*
Y261961D02*X183883Y262761D01*
X182496Y261961D02*X181109Y262761D01*
X192496Y261961D02*Y260361D01*
Y261961D02*X193883Y262761D01*
X192496Y261961D02*X191109Y262761D01*
X172496Y261961D02*Y260361D01*
Y261961D02*X173883Y262761D01*
X172496Y261961D02*X171109Y262761D01*
X186811Y173220D02*Y171620D01*
Y173220D02*X188198Y174020D01*
X186811Y173220D02*X185424Y174020D01*
X196811Y173220D02*Y171620D01*
Y173220D02*X198198Y174020D01*
X196811Y173220D02*X195424Y174020D01*
X176811Y173220D02*Y171620D01*
Y173220D02*X178198Y174020D01*
X176811Y173220D02*X175424Y174020D01*
X181811Y183220D02*Y181620D01*
Y183220D02*X183198Y184020D01*
X181811Y183220D02*X180424Y184020D01*
X191811Y183220D02*Y181620D01*
Y183220D02*X193198Y184020D01*
X191811Y183220D02*X190424Y184020D01*
X171811Y183220D02*Y181620D01*
Y183220D02*X173198Y184020D01*
X171811Y183220D02*X170424Y184020D01*
X187496Y94480D02*Y92880D01*
Y94480D02*X188883Y95280D01*
X187496Y94480D02*X186109Y95280D01*
X197496Y94480D02*Y92880D01*
Y94480D02*X198883Y95280D01*
X197496Y94480D02*X196109Y95280D01*
X177496Y94480D02*Y92880D01*
Y94480D02*X178883Y95280D01*
X177496Y94480D02*X176109Y95280D01*
X182496Y104480D02*Y102880D01*
Y104480D02*X183883Y105280D01*
X182496Y104480D02*X181109Y105280D01*
X192496Y104480D02*Y102880D01*
Y104480D02*X193883Y105280D01*
X192496Y104480D02*X191109Y105280D01*
X172496Y104480D02*Y102880D01*
Y104480D02*X173883Y105280D01*
X172496Y104480D02*X171109Y105280D01*
X186811Y15740D02*Y14140D01*
Y15740D02*X188198Y16540D01*
X186811Y15740D02*X185424Y16540D01*
X196811Y15740D02*Y14140D01*
Y15740D02*X198198Y16540D01*
X196811Y15740D02*X195424Y16540D01*
X176811Y15740D02*Y14140D01*
Y15740D02*X178198Y16540D01*
X176811Y15740D02*X175424Y16540D01*
X181811Y25740D02*Y24140D01*
Y25740D02*X183198Y26540D01*
X181811Y25740D02*X180424Y26540D01*
X191811Y25740D02*Y24140D01*
Y25740D02*X193198Y26540D01*
X191811Y25740D02*X190424Y26540D01*
X171811Y25740D02*Y24140D01*
Y25740D02*X173198Y26540D01*
X171811Y25740D02*X170424Y26540D01*
X45685Y333701D02*Y332101D01*
Y333701D02*X47072Y334501D01*
X45685Y333701D02*X44298Y334501D01*
X45685Y340701D02*Y339101D01*
Y340701D02*X47072Y341501D01*
X45685Y340701D02*X44298Y341501D01*
X125685Y322701D02*Y321101D01*
Y322701D02*X127072Y323501D01*
X125685Y322701D02*X124298Y323501D01*
X125685Y340701D02*Y339101D01*
Y340701D02*X127072Y341501D01*
X125685Y340701D02*X124298Y341501D01*
X135685Y340701D02*Y339101D01*
Y340701D02*X137072Y341501D01*
X135685Y340701D02*X134298Y341501D01*
X125685Y333701D02*Y332101D01*
Y333701D02*X127072Y334501D01*
X125685Y333701D02*X124298Y334501D01*
X135685Y333701D02*Y332101D01*
Y333701D02*X137072Y334501D01*
X135685Y333701D02*X134298Y334501D01*
X67685Y340701D02*Y339101D01*
Y340701D02*X69072Y341501D01*
X67685Y340701D02*X66298Y341501D01*
X68685Y333701D02*Y332101D01*
Y333701D02*X70072Y334501D01*
X68685Y333701D02*X67298Y334501D01*
X45685Y254961D02*Y253361D01*
Y254961D02*X47072Y255761D01*
X45685Y254961D02*X44298Y255761D01*
X45685Y261961D02*Y260361D01*
Y261961D02*X47072Y262761D01*
X45685Y261961D02*X44298Y262761D01*
X125685Y243961D02*Y242361D01*
Y243961D02*X127072Y244761D01*
X125685Y243961D02*X124298Y244761D01*
X125685Y261961D02*Y260361D01*
Y261961D02*X127072Y262761D01*
X125685Y261961D02*X124298Y262761D01*
X135685Y261961D02*Y260361D01*
Y261961D02*X137072Y262761D01*
X135685Y261961D02*X134298Y262761D01*
X125685Y254961D02*Y253361D01*
Y254961D02*X127072Y255761D01*
X125685Y254961D02*X124298Y255761D01*
X135685Y254961D02*Y253361D01*
Y254961D02*X137072Y255761D01*
X135685Y254961D02*X134298Y255761D01*
X67685Y261961D02*Y260361D01*
Y261961D02*X69072Y262761D01*
X67685Y261961D02*X66298Y262761D01*
X68685Y254961D02*Y253361D01*
Y254961D02*X70072Y255761D01*
X68685Y254961D02*X67298Y255761D01*
X45000Y176220D02*Y174620D01*
Y176220D02*X46387Y177020D01*
X45000Y176220D02*X43613Y177020D01*
X45000Y183220D02*Y181620D01*
Y183220D02*X46387Y184020D01*
X45000Y183220D02*X43613Y184020D01*
X125000Y165220D02*Y163620D01*
Y165220D02*X126387Y166020D01*
X125000Y165220D02*X123613Y166020D01*
X125000Y183220D02*Y181620D01*
Y183220D02*X126387Y184020D01*
X125000Y183220D02*X123613Y184020D01*
X135000Y183220D02*Y181620D01*
Y183220D02*X136387Y184020D01*
X135000Y183220D02*X133613Y184020D01*
X125000Y176220D02*Y174620D01*
Y176220D02*X126387Y177020D01*
X125000Y176220D02*X123613Y177020D01*
X135000Y176220D02*Y174620D01*
Y176220D02*X136387Y177020D01*
X135000Y176220D02*X133613Y177020D01*
X67000Y183220D02*Y181620D01*
Y183220D02*X68387Y184020D01*
X67000Y183220D02*X65613Y184020D01*
X68000Y176220D02*Y174620D01*
Y176220D02*X69387Y177020D01*
X68000Y176220D02*X66613Y177020D01*
X45685Y97480D02*Y95880D01*
Y97480D02*X47072Y98280D01*
X45685Y97480D02*X44298Y98280D01*
X45685Y104480D02*Y102880D01*
Y104480D02*X47072Y105280D01*
X45685Y104480D02*X44298Y105280D01*
X125685Y86480D02*Y84880D01*
Y86480D02*X127072Y87280D01*
X125685Y86480D02*X124298Y87280D01*
X125685Y104480D02*Y102880D01*
Y104480D02*X127072Y105280D01*
X125685Y104480D02*X124298Y105280D01*
X135685Y104480D02*Y102880D01*
Y104480D02*X137072Y105280D01*
X135685Y104480D02*X134298Y105280D01*
X125685Y97480D02*Y95880D01*
Y97480D02*X127072Y98280D01*
X125685Y97480D02*X124298Y98280D01*
X135685Y97480D02*Y95880D01*
Y97480D02*X137072Y98280D01*
X135685Y97480D02*X134298Y98280D01*
X67685Y104480D02*Y102880D01*
Y104480D02*X69072Y105280D01*
X67685Y104480D02*X66298Y105280D01*
X68685Y97480D02*Y95880D01*
Y97480D02*X70072Y98280D01*
X68685Y97480D02*X67298Y98280D01*
X45000Y18740D02*Y17140D01*
Y18740D02*X46387Y19540D01*
X45000Y18740D02*X43613Y19540D01*
X45000Y25740D02*Y24140D01*
Y25740D02*X46387Y26540D01*
X45000Y25740D02*X43613Y26540D01*
X125000Y7740D02*Y6140D01*
Y7740D02*X126387Y8540D01*
X125000Y7740D02*X123613Y8540D01*
X125000Y25740D02*Y24140D01*
Y25740D02*X126387Y26540D01*
X125000Y25740D02*X123613Y26540D01*
X135000Y25740D02*Y24140D01*
Y25740D02*X136387Y26540D01*
X135000Y25740D02*X133613Y26540D01*
X125000Y18740D02*Y17140D01*
Y18740D02*X126387Y19540D01*
X125000Y18740D02*X123613Y19540D01*
X135000Y18740D02*Y17140D01*
Y18740D02*X136387Y19540D01*
X135000Y18740D02*X133613Y19540D01*
X67000Y25740D02*Y24140D01*
Y25740D02*X68387Y26540D01*
X67000Y25740D02*X65613Y26540D01*
X68000Y18740D02*Y17140D01*
Y18740D02*X69387Y19540D01*
X68000Y18740D02*X66613Y19540D01*
X15000Y464951D02*Y463351D01*
Y464951D02*X16387Y465751D01*
X15000Y464951D02*X13613Y465751D01*
X135000Y467201D02*X136500Y464201D01*
X138000Y467201D01*
X136500Y464201D02*Y461201D01*
X139800Y464501D02*X142050D01*
X139800Y461201D02*X142800D01*
X139800Y467201D02*Y461201D01*
Y467201D02*X142800D01*
X147600D02*X148350Y466451D01*
X145350Y467201D02*X147600D01*
X144600Y466451D02*X145350Y467201D01*
X144600Y466451D02*Y464951D01*
X145350Y464201D01*
X147600D01*
X148350Y463451D01*
Y461951D01*
X147600Y461201D02*X148350Y461951D01*
X145350Y461201D02*X147600D01*
X144600Y461951D02*X145350Y461201D01*
X98750D02*X101750Y467201D01*
X98000D02*X101750D01*
X103550D02*X106550D01*
X103550D02*Y464201D01*
X104300Y464951D01*
X105800D01*
X106550Y464201D01*
Y461951D01*
X105800Y461201D02*X106550Y461951D01*
X104300Y461201D02*X105800D01*
X103550Y461951D02*X104300Y461201D01*
X45000Y461951D02*X45750Y461201D01*
X45000Y466451D02*Y461951D01*
Y466451D02*X45750Y467201D01*
X47250D01*
X48000Y466451D01*
Y461951D01*
X47250Y461201D02*X48000Y461951D01*
X45750Y461201D02*X47250D01*
X45000Y462701D02*X48000Y465701D01*
X49800Y461201D02*X50550D01*
X52350Y461951D02*X53100Y461201D01*
X52350Y466451D02*Y461951D01*
Y466451D02*X53100Y467201D01*
X54600D01*
X55350Y466451D01*
Y461951D01*
X54600Y461201D02*X55350Y461951D01*
X53100Y461201D02*X54600D01*
X52350Y462701D02*X55350Y465701D01*
X57150Y466451D02*X57900Y467201D01*
X60150D01*
X60900Y466451D01*
Y464951D01*
X57150Y461201D02*X60900Y464951D01*
X57150Y461201D02*X60900D01*
X62700Y461951D02*X63450Y461201D01*
X62700Y466451D02*Y461951D01*
Y466451D02*X63450Y467201D01*
X64950D01*
X65700Y466451D01*
Y461951D01*
X64950Y461201D02*X65700Y461951D01*
X63450Y461201D02*X64950D01*
X62700Y462701D02*X65700Y465701D01*
X3000Y482201D02*X3750Y481451D01*
X750Y482201D02*X3000D01*
X0Y481451D02*X750Y482201D01*
X0Y481451D02*Y479951D01*
X750Y479201D01*
X3000D01*
X3750Y478451D01*
Y476951D01*
X3000Y476201D02*X3750Y476951D01*
X750Y476201D02*X3000D01*
X0Y476951D02*X750Y476201D01*
X5550Y479201D02*Y476951D01*
X6300Y476201D01*
X8550Y479201D02*Y474701D01*
X7800Y473951D02*X8550Y474701D01*
X6300Y473951D02*X7800D01*
X5550Y474701D02*X6300Y473951D01*
Y476201D02*X7800D01*
X8550Y476951D01*
X11100Y478451D02*Y476201D01*
Y478451D02*X11850Y479201D01*
X12600D01*
X13350Y478451D01*
Y476201D01*
Y478451D02*X14100Y479201D01*
X14850D01*
X15600Y478451D01*
Y476201D01*
X10350Y479201D02*X11100Y478451D01*
X17400Y482201D02*Y476201D01*
Y476951D02*X18150Y476201D01*
X19650D01*
X20400Y476951D01*
Y478451D02*Y476951D01*
X19650Y479201D02*X20400Y478451D01*
X18150Y479201D02*X19650D01*
X17400Y478451D02*X18150Y479201D01*
X22200Y478451D02*Y476951D01*
Y478451D02*X22950Y479201D01*
X24450D01*
X25200Y478451D01*
Y476951D01*
X24450Y476201D02*X25200Y476951D01*
X22950Y476201D02*X24450D01*
X22200Y476951D02*X22950Y476201D01*
X27000Y482201D02*Y476951D01*
X27750Y476201D01*
X0Y472951D02*X29250D01*
X41750Y482201D02*Y476201D01*
X43700Y482201D02*X44750Y481151D01*
Y477251D01*
X43700Y476201D02*X44750Y477251D01*
X41000Y476201D02*X43700D01*
X41000Y482201D02*X43700D01*
G54D64*X46550Y480701D02*Y480551D01*
G54D63*Y478451D02*Y476201D01*
X50300Y479201D02*X51050Y478451D01*
X48800Y479201D02*X50300D01*
X48050Y478451D02*X48800Y479201D01*
X48050Y478451D02*Y476951D01*
X48800Y476201D01*
X51050Y479201D02*Y476951D01*
X51800Y476201D01*
X48800D02*X50300D01*
X51050Y476951D01*
X54350Y478451D02*Y476201D01*
Y478451D02*X55100Y479201D01*
X55850D01*
X56600Y478451D01*
Y476201D01*
Y478451D02*X57350Y479201D01*
X58100D01*
X58850Y478451D01*
Y476201D01*
X53600Y479201D02*X54350Y478451D01*
X60650Y476201D02*X61400D01*
X65900Y476951D02*X66650Y476201D01*
X65900Y481451D02*X66650Y482201D01*
X65900Y481451D02*Y476951D01*
X68450Y482201D02*X69950D01*
X69200D02*Y476201D01*
X68450D02*X69950D01*
X72500Y478451D02*Y476201D01*
Y478451D02*X73250Y479201D01*
X74000D01*
X74750Y478451D01*
Y476201D01*
X71750Y479201D02*X72500Y478451D01*
X77300Y479201D02*X79550D01*
X76550Y478451D02*X77300Y479201D01*
X76550Y478451D02*Y476951D01*
X77300Y476201D01*
X79550D01*
X81350Y482201D02*Y476201D01*
Y478451D02*X82100Y479201D01*
X83600D01*
X84350Y478451D01*
Y476201D01*
X86150Y482201D02*X86900Y481451D01*
Y476951D01*
X86150Y476201D02*X86900Y476951D01*
X41000Y472951D02*X88700D01*
X96050Y476201D02*X98000D01*
X95000Y477251D02*X96050Y476201D01*
X95000Y481151D02*Y477251D01*
Y481151D02*X96050Y482201D01*
X98000D01*
X99800Y478451D02*Y476951D01*
Y478451D02*X100550Y479201D01*
X102050D01*
X102800Y478451D01*
Y476951D01*
X102050Y476201D02*X102800Y476951D01*
X100550Y476201D02*X102050D01*
X99800Y476951D02*X100550Y476201D01*
X104600Y479201D02*Y476951D01*
X105350Y476201D01*
X106850D01*
X107600Y476951D01*
Y479201D02*Y476951D01*
X110150Y478451D02*Y476201D01*
Y478451D02*X110900Y479201D01*
X111650D01*
X112400Y478451D01*
Y476201D01*
X109400Y479201D02*X110150Y478451D01*
X114950Y482201D02*Y476951D01*
X115700Y476201D01*
X114200Y479951D02*X115700D01*
X95000Y472951D02*X117200D01*
X130750Y482201D02*Y476201D01*
X130000Y482201D02*X133000D01*
X133750Y481451D01*
Y479951D01*
X133000Y479201D02*X133750Y479951D01*
X130750Y479201D02*X133000D01*
X135550Y482201D02*Y476951D01*
X136300Y476201D01*
X140050Y479201D02*X140800Y478451D01*
X138550Y479201D02*X140050D01*
X137800Y478451D02*X138550Y479201D01*
X137800Y478451D02*Y476951D01*
X138550Y476201D01*
X140800Y479201D02*Y476951D01*
X141550Y476201D01*
X138550D02*X140050D01*
X140800Y476951D01*
X144100Y482201D02*Y476951D01*
X144850Y476201D01*
X143350Y479951D02*X144850D01*
X147100Y476201D02*X149350D01*
X146350Y476951D02*X147100Y476201D01*
X146350Y478451D02*Y476951D01*
Y478451D02*X147100Y479201D01*
X148600D01*
X149350Y478451D01*
X146350Y477701D02*X149350D01*
Y478451D02*Y477701D01*
X154150Y482201D02*Y476201D01*
X153400D02*X154150Y476951D01*
X151900Y476201D02*X153400D01*
X151150Y476951D02*X151900Y476201D01*
X151150Y478451D02*Y476951D01*
Y478451D02*X151900Y479201D01*
X153400D01*
X154150Y478451D01*
X157450Y479201D02*Y478451D01*
Y476951D02*Y476201D01*
X155950Y481451D02*Y480701D01*
Y481451D02*X156700Y482201D01*
X158200D01*
X158950Y481451D01*
Y480701D01*
X157450Y479201D02*X158950Y480701D01*
X130000Y472951D02*X160750D01*
X0Y497201D02*X3000D01*
X1500D02*Y491201D01*
X4800Y497201D02*Y491201D01*
Y493451D02*X5550Y494201D01*
X7050D01*
X7800Y493451D01*
Y491201D01*
X10350D02*X12600D01*
X9600Y491951D02*X10350Y491201D01*
X9600Y493451D02*Y491951D01*
Y493451D02*X10350Y494201D01*
X11850D01*
X12600Y493451D01*
X9600Y492701D02*X12600D01*
Y493451D02*Y492701D01*
X15150Y493451D02*Y491201D01*
Y493451D02*X15900Y494201D01*
X17400D01*
X14400D02*X15150Y493451D01*
X19950Y491201D02*X22200D01*
X19200Y491951D02*X19950Y491201D01*
X19200Y493451D02*Y491951D01*
Y493451D02*X19950Y494201D01*
X21450D01*
X22200Y493451D01*
X19200Y492701D02*X22200D01*
Y493451D02*Y492701D01*
X28950Y494201D02*X29700Y493451D01*
X27450Y494201D02*X28950D01*
X26700Y493451D02*X27450Y494201D01*
X26700Y493451D02*Y491951D01*
X27450Y491201D01*
X29700Y494201D02*Y491951D01*
X30450Y491201D01*
X27450D02*X28950D01*
X29700Y491951D01*
X33000Y493451D02*Y491201D01*
Y493451D02*X33750Y494201D01*
X35250D01*
X32250D02*X33000Y493451D01*
X37800Y491201D02*X40050D01*
X37050Y491951D02*X37800Y491201D01*
X37050Y493451D02*Y491951D01*
Y493451D02*X37800Y494201D01*
X39300D01*
X40050Y493451D01*
X37050Y492701D02*X40050D01*
Y493451D02*Y492701D01*
X44550Y497201D02*X47550D01*
X44550D02*Y494201D01*
X45300Y494951D01*
X46800D01*
X47550Y494201D01*
Y491951D01*
X46800Y491201D02*X47550Y491951D01*
X45300Y491201D02*X46800D01*
X44550Y491951D02*X45300Y491201D01*
X55050Y497201D02*Y491201D01*
X54300D02*X55050Y491951D01*
X52800Y491201D02*X54300D01*
X52050Y491951D02*X52800Y491201D01*
X52050Y493451D02*Y491951D01*
Y493451D02*X52800Y494201D01*
X54300D01*
X55050Y493451D01*
G54D64*X56850Y495701D02*Y495551D01*
G54D63*Y493451D02*Y491201D01*
X59100Y496451D02*Y491201D01*
Y496451D02*X59850Y497201D01*
X60600D01*
X58350Y494201D02*X59850D01*
X62850Y496451D02*Y491201D01*
Y496451D02*X63600Y497201D01*
X64350D01*
X62100Y494201D02*X63600D01*
X66600Y491201D02*X68850D01*
X65850Y491951D02*X66600Y491201D01*
X65850Y493451D02*Y491951D01*
Y493451D02*X66600Y494201D01*
X68100D01*
X68850Y493451D01*
X65850Y492701D02*X68850D01*
Y493451D02*Y492701D01*
X71400Y493451D02*Y491201D01*
Y493451D02*X72150Y494201D01*
X73650D01*
X70650D02*X71400Y493451D01*
X76200Y491201D02*X78450D01*
X75450Y491951D02*X76200Y491201D01*
X75450Y493451D02*Y491951D01*
Y493451D02*X76200Y494201D01*
X77700D01*
X78450Y493451D01*
X75450Y492701D02*X78450D01*
Y493451D02*Y492701D01*
X81000Y493451D02*Y491201D01*
Y493451D02*X81750Y494201D01*
X82500D01*
X83250Y493451D01*
Y491201D01*
X80250Y494201D02*X81000Y493451D01*
X85800Y497201D02*Y491951D01*
X86550Y491201D01*
X85050Y494951D02*X86550D01*
X93750Y497201D02*Y491201D01*
X93000D02*X93750Y491951D01*
X91500Y491201D02*X93000D01*
X90750Y491951D02*X91500Y491201D01*
X90750Y493451D02*Y491951D01*
Y493451D02*X91500Y494201D01*
X93000D01*
X93750Y493451D01*
X96300D02*Y491201D01*
Y493451D02*X97050Y494201D01*
X98550D01*
X95550D02*X96300Y493451D01*
G54D64*X100350Y495701D02*Y495551D01*
G54D63*Y493451D02*Y491201D01*
X101850Y497201D02*Y491951D01*
X102600Y491201D01*
X104100Y497201D02*Y491951D01*
X104850Y491201D01*
X109800D02*X112050D01*
X112800Y491951D01*
X112050Y492701D02*X112800Y491951D01*
X109800Y492701D02*X112050D01*
X109050Y493451D02*X109800Y492701D01*
X109050Y493451D02*X109800Y494201D01*
X112050D01*
X112800Y493451D01*
X109050Y491951D02*X109800Y491201D01*
G54D64*X114600Y495701D02*Y495551D01*
G54D63*Y493451D02*Y491201D01*
X116100Y494201D02*X119100D01*
X116100Y491201D02*X119100Y494201D01*
X116100Y491201D02*X119100D01*
X121650D02*X123900D01*
X120900Y491951D02*X121650Y491201D01*
X120900Y493451D02*Y491951D01*
Y493451D02*X121650Y494201D01*
X123150D01*
X123900Y493451D01*
X120900Y492701D02*X123900D01*
Y493451D02*Y492701D01*
X126450Y491201D02*X128700D01*
X129450Y491951D01*
X128700Y492701D02*X129450Y491951D01*
X126450Y492701D02*X128700D01*
X125700Y493451D02*X126450Y492701D01*
X125700Y493451D02*X126450Y494201D01*
X128700D01*
X129450Y493451D01*
X125700Y491951D02*X126450Y491201D01*
X133950Y494201D02*Y491951D01*
X134700Y491201D01*
X136200D01*
X136950Y491951D01*
Y494201D02*Y491951D01*
X139500Y491201D02*X141750D01*
X142500Y491951D01*
X141750Y492701D02*X142500Y491951D01*
X139500Y492701D02*X141750D01*
X138750Y493451D02*X139500Y492701D01*
X138750Y493451D02*X139500Y494201D01*
X141750D01*
X142500Y493451D01*
X138750Y491951D02*X139500Y491201D01*
X145050D02*X147300D01*
X144300Y491951D02*X145050Y491201D01*
X144300Y493451D02*Y491951D01*
Y493451D02*X145050Y494201D01*
X146550D01*
X147300Y493451D01*
X144300Y492701D02*X147300D01*
Y493451D02*Y492701D01*
X152100Y497201D02*Y491201D01*
X151350D02*X152100Y491951D01*
X149850Y491201D02*X151350D01*
X149100Y491951D02*X149850Y491201D01*
X149100Y493451D02*Y491951D01*
Y493451D02*X149850Y494201D01*
X151350D01*
X152100Y493451D01*
G54D64*X156600Y495701D02*Y495551D01*
G54D63*Y493451D02*Y491201D01*
X158850Y493451D02*Y491201D01*
Y493451D02*X159600Y494201D01*
X160350D01*
X161100Y493451D01*
Y491201D01*
X158100Y494201D02*X158850Y493451D01*
X166350Y497201D02*Y491951D01*
X167100Y491201D01*
X165600Y494951D02*X167100D01*
X168600Y497201D02*Y491201D01*
Y493451D02*X169350Y494201D01*
X170850D01*
X171600Y493451D01*
Y491201D01*
G54D64*X173400Y495701D02*Y495551D01*
G54D63*Y493451D02*Y491201D01*
X175650D02*X177900D01*
X178650Y491951D01*
X177900Y492701D02*X178650Y491951D01*
X175650Y492701D02*X177900D01*
X174900Y493451D02*X175650Y492701D01*
X174900Y493451D02*X175650Y494201D01*
X177900D01*
X178650Y493451D01*
X174900Y491951D02*X175650Y491201D01*
X183150Y497201D02*Y491951D01*
X183900Y491201D01*
X187650Y494201D02*X188400Y493451D01*
X186150Y494201D02*X187650D01*
X185400Y493451D02*X186150Y494201D01*
X185400Y493451D02*Y491951D01*
X186150Y491201D01*
X188400Y494201D02*Y491951D01*
X189150Y491201D01*
X186150D02*X187650D01*
X188400Y491951D01*
X190950Y494201D02*Y491951D01*
X191700Y491201D01*
X193950Y494201D02*Y489701D01*
X193200Y488951D02*X193950Y489701D01*
X191700Y488951D02*X193200D01*
X190950Y489701D02*X191700Y488951D01*
Y491201D02*X193200D01*
X193950Y491951D01*
X195750Y493451D02*Y491951D01*
Y493451D02*X196500Y494201D01*
X198000D01*
X198750Y493451D01*
Y491951D01*
X198000Y491201D02*X198750Y491951D01*
X196500Y491201D02*X198000D01*
X195750Y491951D02*X196500Y491201D01*
X200550Y494201D02*Y491951D01*
X201300Y491201D01*
X202800D01*
X203550Y491951D01*
Y494201D02*Y491951D01*
X206100Y497201D02*Y491951D01*
X206850Y491201D01*
X205350Y494951D02*X206850D01*
X208350Y489701D02*X209850Y491201D01*
X214350Y496001D02*X215550Y497201D01*
Y491201D01*
X214350D02*X216600D01*
X220650Y497201D02*X221400Y496451D01*
X219150Y497201D02*X220650D01*
X218400Y496451D02*X219150Y497201D01*
X218400Y496451D02*Y491951D01*
X219150Y491201D01*
X220650Y494501D02*X221400Y493751D01*
X218400Y494501D02*X220650D01*
X219150Y491201D02*X220650D01*
X221400Y491951D01*
Y493751D02*Y491951D01*
X223200D02*X223950Y491201D01*
X223200Y496451D02*Y491951D01*
Y496451D02*X223950Y497201D01*
X225450D01*
X226200Y496451D01*
Y491951D01*
X225450Y491201D02*X226200Y491951D01*
X223950Y491201D02*X225450D01*
X223200Y492701D02*X226200Y495701D01*
X230700Y497201D02*Y491201D01*
Y493451D02*X231450Y494201D01*
X232950D01*
X233700Y493451D01*
Y491201D01*
X235500Y493451D02*Y491951D01*
Y493451D02*X236250Y494201D01*
X237750D01*
X238500Y493451D01*
Y491951D01*
X237750Y491201D02*X238500Y491951D01*
X236250Y491201D02*X237750D01*
X235500Y491951D02*X236250Y491201D01*
X240300Y497201D02*Y491951D01*
X241050Y491201D01*
X243300D02*X245550D01*
X242550Y491951D02*X243300Y491201D01*
X242550Y493451D02*Y491951D01*
Y493451D02*X243300Y494201D01*
X244800D01*
X245550Y493451D01*
X242550Y492701D02*X245550D01*
Y493451D02*Y492701D01*
X248100Y491201D02*X250350D01*
X251100Y491951D01*
X250350Y492701D02*X251100Y491951D01*
X248100Y492701D02*X250350D01*
X247350Y493451D02*X248100Y492701D01*
X247350Y493451D02*X248100Y494201D01*
X250350D01*
X251100Y493451D01*
X247350Y491951D02*X248100Y491201D01*
X256350Y497201D02*Y491951D01*
X257100Y491201D01*
X255600Y494951D02*X257100D01*
X258600Y493451D02*Y491951D01*
Y493451D02*X259350Y494201D01*
X260850D01*
X261600Y493451D01*
Y491951D01*
X260850Y491201D02*X261600Y491951D01*
X259350Y491201D02*X260850D01*
X258600Y491951D02*X259350Y491201D01*
X264150Y497201D02*Y491951D01*
X264900Y491201D01*
X263400Y494951D02*X264900D01*
X268650Y494201D02*X269400Y493451D01*
X267150Y494201D02*X268650D01*
X266400Y493451D02*X267150Y494201D01*
X266400Y493451D02*Y491951D01*
X267150Y491201D01*
X269400Y494201D02*Y491951D01*
X270150Y491201D01*
X267150D02*X268650D01*
X269400Y491951D01*
X271950Y497201D02*Y491951D01*
X272700Y491201D01*
G54D65*X0Y393701D02*X236220D01*
X0D02*Y0D01*
X236220Y393701D02*Y0D01*
X0D02*X236220D01*
G54D63*X200000Y407201D02*Y401201D01*
Y407201D02*X202250Y404201D01*
X204500Y407201D01*
Y401201D01*
X208550Y404201D02*X209300Y403451D01*
X207050Y404201D02*X208550D01*
X206300Y403451D02*X207050Y404201D01*
X206300Y403451D02*Y401951D01*
X207050Y401201D01*
X209300Y404201D02*Y401951D01*
X210050Y401201D01*
X207050D02*X208550D01*
X209300Y401951D01*
X211850Y404201D02*X214850Y401201D01*
X211850D02*X214850Y404201D01*
G54D64*X216650Y405701D02*Y405551D01*
G54D63*Y403451D02*Y401201D01*
X218900Y403451D02*Y401201D01*
Y403451D02*X219650Y404201D01*
X220400D01*
X221150Y403451D01*
Y401201D01*
Y403451D02*X221900Y404201D01*
X222650D01*
X223400Y403451D01*
Y401201D01*
X218150Y404201D02*X218900Y403451D01*
X225200Y404201D02*Y401951D01*
X225950Y401201D01*
X227450D01*
X228200Y401951D01*
Y404201D02*Y401951D01*
X230750Y403451D02*Y401201D01*
Y403451D02*X231500Y404201D01*
X232250D01*
X233000Y403451D01*
Y401201D01*
Y403451D02*X233750Y404201D01*
X234500D01*
X235250Y403451D01*
Y401201D01*
X230000Y404201D02*X230750Y403451D01*
X240500Y407201D02*Y401201D01*
X242450Y407201D02*X243500Y406151D01*
Y402251D01*
X242450Y401201D02*X243500Y402251D01*
X239750Y401201D02*X242450D01*
X239750Y407201D02*X242450D01*
G54D64*X245300Y405701D02*Y405551D01*
G54D63*Y403451D02*Y401201D01*
X247550Y403451D02*Y401201D01*
Y403451D02*X248300Y404201D01*
X249050D01*
X249800Y403451D01*
Y401201D01*
Y403451D02*X250550Y404201D01*
X251300D01*
X252050Y403451D01*
Y401201D01*
X246800Y404201D02*X247550Y403451D01*
X254600Y401201D02*X256850D01*
X253850Y401951D02*X254600Y401201D01*
X253850Y403451D02*Y401951D01*
Y403451D02*X254600Y404201D01*
X256100D01*
X256850Y403451D01*
X253850Y402701D02*X256850D01*
Y403451D02*Y402701D01*
X259400Y403451D02*Y401201D01*
Y403451D02*X260150Y404201D01*
X260900D01*
X261650Y403451D01*
Y401201D01*
X258650Y404201D02*X259400Y403451D01*
X264200Y401201D02*X266450D01*
X267200Y401951D01*
X266450Y402701D02*X267200Y401951D01*
X264200Y402701D02*X266450D01*
X263450Y403451D02*X264200Y402701D01*
X263450Y403451D02*X264200Y404201D01*
X266450D01*
X267200Y403451D01*
X263450Y401951D02*X264200Y401201D01*
G54D64*X269000Y405701D02*Y405551D01*
G54D63*Y403451D02*Y401201D01*
X270500Y403451D02*Y401951D01*
Y403451D02*X271250Y404201D01*
X272750D01*
X273500Y403451D01*
Y401951D01*
X272750Y401201D02*X273500Y401951D01*
X271250Y401201D02*X272750D01*
X270500Y401951D02*X271250Y401201D01*
X276050Y403451D02*Y401201D01*
Y403451D02*X276800Y404201D01*
X277550D01*
X278300Y403451D01*
Y401201D01*
X275300Y404201D02*X276050Y403451D01*
X280850Y401201D02*X283100D01*
X283850Y401951D01*
X283100Y402701D02*X283850Y401951D01*
X280850Y402701D02*X283100D01*
X280100Y403451D02*X280850Y402701D01*
X280100Y403451D02*X280850Y404201D01*
X283100D01*
X283850Y403451D01*
X280100Y401951D02*X280850Y401201D01*
X285650Y404951D02*X286400D01*
X285650Y403451D02*X286400D01*
X290900Y406451D02*X291650Y407201D01*
X293900D01*
X294650Y406451D01*
Y404951D01*
X290900Y401201D02*X294650Y404951D01*
X290900Y401201D02*X294650D01*
X296450Y406451D02*X297200Y407201D01*
X298700D01*
X299450Y406451D01*
X298700Y401201D02*X299450Y401951D01*
X297200Y401201D02*X298700D01*
X296450Y401951D02*X297200Y401201D01*
Y404501D02*X298700D01*
X299450Y406451D02*Y405251D01*
Y403751D02*Y401951D01*
Y403751D02*X298700Y404501D01*
X299450Y405251D02*X298700Y404501D01*
X303500Y407201D02*X304250Y406451D01*
X302000Y407201D02*X303500D01*
X301250Y406451D02*X302000Y407201D01*
X301250Y406451D02*Y401951D01*
X302000Y401201D01*
X303500Y404501D02*X304250Y403751D01*
X301250Y404501D02*X303500D01*
X302000Y401201D02*X303500D01*
X304250Y401951D01*
Y403751D02*Y401951D01*
X306050Y406451D02*X306800Y407201D01*
X309050D01*
X309800Y406451D01*
Y404951D01*
X306050Y401201D02*X309800Y404951D01*
X306050Y401201D02*X309800D01*
X311600D02*X312350D01*
X314150Y406451D02*X314900Y407201D01*
X317150D01*
X317900Y406451D01*
Y404951D01*
X314150Y401201D02*X317900Y404951D01*
X314150Y401201D02*X317900D01*
X319700Y401951D02*X320450Y401201D01*
X319700Y406451D02*Y401951D01*
Y406451D02*X320450Y407201D01*
X321950D01*
X322700Y406451D01*
Y401951D01*
X321950Y401201D02*X322700Y401951D01*
X320450Y401201D02*X321950D01*
X319700Y402701D02*X322700Y405701D01*
X324500Y403451D02*X327500Y407201D01*
X324500Y403451D02*X328250D01*
X327500Y407201D02*Y401201D01*
X330800D02*X333800Y407201D01*
X330050D02*X333800D01*
X335600Y406451D02*X336350Y407201D01*
X338600D01*
X339350Y406451D01*
Y404951D01*
X335600Y401201D02*X339350Y404951D01*
X335600Y401201D02*X339350D01*
X341150Y403451D02*X344150Y407201D01*
X341150Y403451D02*X344900D01*
X344150Y407201D02*Y401201D01*
X350150Y403451D02*Y401201D01*
Y403451D02*X350900Y404201D01*
X351650D01*
X352400Y403451D01*
Y401201D01*
Y403451D02*X353150Y404201D01*
X353900D01*
X354650Y403451D01*
Y401201D01*
X349400Y404201D02*X350150Y403451D01*
G54D64*X356450Y405701D02*Y405551D01*
G54D63*Y403451D02*Y401201D01*
X357950Y407201D02*Y401951D01*
X358700Y401201D01*
X360950D02*X363200D01*
X363950Y401951D01*
X363200Y402701D02*X363950Y401951D01*
X360950Y402701D02*X363200D01*
X360200Y403451D02*X360950Y402701D01*
X360200Y403451D02*X360950Y404201D01*
X363200D01*
X363950Y403451D01*
X360200Y401951D02*X360950Y401201D01*
X368450Y404201D02*Y401951D01*
X369200Y401201D01*
X369950D01*
X370700Y401951D01*
Y404201D02*Y401951D01*
X371450Y401201D01*
X372200D01*
X372950Y401951D01*
Y404201D02*Y401951D01*
G54D64*X374750Y405701D02*Y405551D01*
G54D63*Y403451D02*Y401201D01*
X379250Y407201D02*Y401201D01*
X378500D02*X379250Y401951D01*
X377000Y401201D02*X378500D01*
X376250Y401951D02*X377000Y401201D01*
X376250Y403451D02*Y401951D01*
Y403451D02*X377000Y404201D01*
X378500D01*
X379250Y403451D01*
X381800Y401201D02*X384050D01*
X381050Y401951D02*X381800Y401201D01*
X381050Y403451D02*Y401951D01*
Y403451D02*X381800Y404201D01*
X383300D01*
X384050Y403451D01*
X381050Y402701D02*X384050D01*
Y403451D02*Y402701D01*
X385850Y399701D02*X387350Y401201D01*
X391850Y406451D02*X392600Y407201D01*
X394100D01*
X394850Y406451D01*
X394100Y401201D02*X394850Y401951D01*
X392600Y401201D02*X394100D01*
X391850Y401951D02*X392600Y401201D01*
Y404501D02*X394100D01*
X394850Y406451D02*Y405251D01*
Y403751D02*Y401951D01*
Y403751D02*X394100Y404501D01*
X394850Y405251D02*X394100Y404501D01*
X397400Y401201D02*X399650Y404201D01*
Y406451D02*Y404201D01*
X398900Y407201D02*X399650Y406451D01*
X397400Y407201D02*X398900D01*
X396650Y406451D02*X397400Y407201D01*
X396650Y406451D02*Y404951D01*
X397400Y404201D01*
X399650D01*
X401450Y406451D02*X402200Y407201D01*
X403700D01*
X404450Y406451D01*
X403700Y401201D02*X404450Y401951D01*
X402200Y401201D02*X403700D01*
X401450Y401951D02*X402200Y401201D01*
Y404501D02*X403700D01*
X404450Y406451D02*Y405251D01*
Y403751D02*Y401951D01*
Y403751D02*X403700Y404501D01*
X404450Y405251D02*X403700Y404501D01*
X407000Y401201D02*X410000Y407201D01*
X406250D02*X410000D01*
X411800Y401201D02*X412550D01*
X414350Y401951D02*X415100Y401201D01*
X414350Y406451D02*Y401951D01*
Y406451D02*X415100Y407201D01*
X416600D01*
X417350Y406451D01*
Y401951D01*
X416600Y401201D02*X417350Y401951D01*
X415100Y401201D02*X416600D01*
X414350Y402701D02*X417350Y405701D01*
X419150Y401951D02*X419900Y401201D01*
X419150Y406451D02*Y401951D01*
Y406451D02*X419900Y407201D01*
X421400D01*
X422150Y406451D01*
Y401951D01*
X421400Y401201D02*X422150Y401951D01*
X419900Y401201D02*X421400D01*
X419150Y402701D02*X422150Y405701D01*
X424700Y401201D02*X427700Y407201D01*
X423950D02*X427700D01*
X429500Y401951D02*X430250Y401201D01*
X429500Y403151D02*Y401951D01*
Y403151D02*X430550Y404201D01*
X431450D01*
X432500Y403151D01*
Y401951D01*
X431750Y401201D02*X432500Y401951D01*
X430250Y401201D02*X431750D01*
X429500Y405251D02*X430550Y404201D01*
X429500Y406451D02*Y405251D01*
Y406451D02*X430250Y407201D01*
X431750D01*
X432500Y406451D01*
Y405251D01*
X431450Y404201D02*X432500Y405251D01*
X435050Y401201D02*X438050Y407201D01*
X434300D02*X438050D01*
X439850Y403451D02*X442850Y407201D01*
X439850Y403451D02*X443600D01*
X442850Y407201D02*Y401201D01*
X448850Y403451D02*Y401201D01*
Y403451D02*X449600Y404201D01*
X450350D01*
X451100Y403451D01*
Y401201D01*
Y403451D02*X451850Y404201D01*
X452600D01*
X453350Y403451D01*
Y401201D01*
X448100Y404201D02*X448850Y403451D01*
G54D64*X455150Y405701D02*Y405551D01*
G54D63*Y403451D02*Y401201D01*
X456650Y407201D02*Y401951D01*
X457400Y401201D01*
X459650D02*X461900D01*
X462650Y401951D01*
X461900Y402701D02*X462650Y401951D01*
X459650Y402701D02*X461900D01*
X458900Y403451D02*X459650Y402701D01*
X458900Y403451D02*X459650Y404201D01*
X461900D01*
X462650Y403451D01*
X458900Y401951D02*X459650Y401201D01*
X467150Y407201D02*Y401201D01*
Y403451D02*X467900Y404201D01*
X469400D01*
X470150Y403451D01*
Y401201D01*
G54D64*X471950Y405701D02*Y405551D01*
G54D63*Y403451D02*Y401201D01*
X475700Y404201D02*X476450Y403451D01*
X474200Y404201D02*X475700D01*
X473450Y403451D02*X474200Y404201D01*
X473450Y403451D02*Y401951D01*
X474200Y401201D01*
X475700D01*
X476450Y401951D01*
X473450Y399701D02*X474200Y398951D01*
X475700D01*
X476450Y399701D01*
Y404201D02*Y399701D01*
X478250Y407201D02*Y401201D01*
Y403451D02*X479000Y404201D01*
X480500D01*
X481250Y403451D01*
Y401201D01*
X0Y-9500D02*X3000D01*
X3750Y-8750D01*
Y-6950D02*Y-8750D01*
X3000Y-6200D02*X3750Y-6950D01*
X750Y-6200D02*X3000D01*
X750Y-3500D02*Y-9500D01*
X0Y-3500D02*X3000D01*
X3750Y-4250D01*
Y-5450D01*
X3000Y-6200D02*X3750Y-5450D01*
X5550Y-7250D02*Y-8750D01*
Y-7250D02*X6300Y-6500D01*
X7800D01*
X8550Y-7250D01*
Y-8750D01*
X7800Y-9500D02*X8550Y-8750D01*
X6300Y-9500D02*X7800D01*
X5550Y-8750D02*X6300Y-9500D01*
X12600Y-6500D02*X13350Y-7250D01*
X11100Y-6500D02*X12600D01*
X10350Y-7250D02*X11100Y-6500D01*
X10350Y-7250D02*Y-8750D01*
X11100Y-9500D01*
X13350Y-6500D02*Y-8750D01*
X14100Y-9500D01*
X11100D02*X12600D01*
X13350Y-8750D01*
X16650Y-7250D02*Y-9500D01*
Y-7250D02*X17400Y-6500D01*
X18900D01*
X15900D02*X16650Y-7250D01*
X23700Y-3500D02*Y-9500D01*
X22950D02*X23700Y-8750D01*
X21450Y-9500D02*X22950D01*
X20700Y-8750D02*X21450Y-9500D01*
X20700Y-7250D02*Y-8750D01*
Y-7250D02*X21450Y-6500D01*
X22950D01*
X23700Y-7250D01*
X28200D02*Y-8750D01*
Y-7250D02*X28950Y-6500D01*
X30450D01*
X31200Y-7250D01*
Y-8750D01*
X30450Y-9500D02*X31200Y-8750D01*
X28950Y-9500D02*X30450D01*
X28200Y-8750D02*X28950Y-9500D01*
X33000Y-6500D02*Y-8750D01*
X33750Y-9500D01*
X35250D01*
X36000Y-8750D01*
Y-6500D02*Y-8750D01*
X38550Y-3500D02*Y-8750D01*
X39300Y-9500D01*
X37800Y-5750D02*X39300D01*
X40800Y-3500D02*Y-8750D01*
X41550Y-9500D01*
G54D64*X43050Y-5000D02*Y-5150D01*
G54D63*Y-7250D02*Y-9500D01*
X45300Y-7250D02*Y-9500D01*
Y-7250D02*X46050Y-6500D01*
X46800D01*
X47550Y-7250D01*
Y-9500D01*
X44550Y-6500D02*X45300Y-7250D01*
X50100Y-9500D02*X52350D01*
X49350Y-8750D02*X50100Y-9500D01*
X49350Y-7250D02*Y-8750D01*
Y-7250D02*X50100Y-6500D01*
X51600D01*
X52350Y-7250D01*
X49350Y-8000D02*X52350D01*
Y-7250D02*Y-8000D01*
G54D64*X56850Y-5000D02*Y-5150D01*
G54D63*Y-7250D02*Y-9500D01*
X59100D02*X61350D01*
X62100Y-8750D01*
X61350Y-8000D02*X62100Y-8750D01*
X59100Y-8000D02*X61350D01*
X58350Y-7250D02*X59100Y-8000D01*
X58350Y-7250D02*X59100Y-6500D01*
X61350D01*
X62100Y-7250D01*
X58350Y-8750D02*X59100Y-9500D01*
X67350Y-3500D02*Y-8750D01*
X68100Y-9500D01*
X66600Y-5750D02*X68100D01*
X69600Y-3500D02*Y-9500D01*
Y-7250D02*X70350Y-6500D01*
X71850D01*
X72600Y-7250D01*
Y-9500D01*
X75150D02*X77400D01*
X74400Y-8750D02*X75150Y-9500D01*
X74400Y-7250D02*Y-8750D01*
Y-7250D02*X75150Y-6500D01*
X76650D01*
X77400Y-7250D01*
X74400Y-8000D02*X77400D01*
Y-7250D02*Y-8000D01*
X82650Y-6500D02*X84900D01*
X81900Y-7250D02*X82650Y-6500D01*
X81900Y-7250D02*Y-8750D01*
X82650Y-9500D01*
X84900D01*
X87450D02*X89700D01*
X86700Y-8750D02*X87450Y-9500D01*
X86700Y-7250D02*Y-8750D01*
Y-7250D02*X87450Y-6500D01*
X88950D01*
X89700Y-7250D01*
X86700Y-8000D02*X89700D01*
Y-7250D02*Y-8000D01*
X92250Y-7250D02*Y-9500D01*
Y-7250D02*X93000Y-6500D01*
X93750D01*
X94500Y-7250D01*
Y-9500D01*
X91500Y-6500D02*X92250Y-7250D01*
X97050Y-3500D02*Y-8750D01*
X97800Y-9500D01*
X96300Y-5750D02*X97800D01*
X100050Y-9500D02*X102300D01*
X99300Y-8750D02*X100050Y-9500D01*
X99300Y-7250D02*Y-8750D01*
Y-7250D02*X100050Y-6500D01*
X101550D01*
X102300Y-7250D01*
X99300Y-8000D02*X102300D01*
Y-7250D02*Y-8000D01*
X104850Y-7250D02*Y-9500D01*
Y-7250D02*X105600Y-6500D01*
X107100D01*
X104100D02*X104850Y-7250D01*
X108900Y-3500D02*Y-8750D01*
X109650Y-9500D01*
G54D64*X111150Y-5000D02*Y-5150D01*
G54D63*Y-7250D02*Y-9500D01*
X113400Y-7250D02*Y-9500D01*
Y-7250D02*X114150Y-6500D01*
X114900D01*
X115650Y-7250D01*
Y-9500D01*
X112650Y-6500D02*X113400Y-7250D01*
X118200Y-9500D02*X120450D01*
X117450Y-8750D02*X118200Y-9500D01*
X117450Y-7250D02*Y-8750D01*
Y-7250D02*X118200Y-6500D01*
X119700D01*
X120450Y-7250D01*
X117450Y-8000D02*X120450D01*
Y-7250D02*Y-8000D01*
X124950Y-7250D02*Y-8750D01*
Y-7250D02*X125700Y-6500D01*
X127200D01*
X127950Y-7250D01*
Y-8750D01*
X127200Y-9500D02*X127950Y-8750D01*
X125700Y-9500D02*X127200D01*
X124950Y-8750D02*X125700Y-9500D01*
X130500Y-4250D02*Y-9500D01*
Y-4250D02*X131250Y-3500D01*
X132000D01*
X129750Y-6500D02*X131250D01*
X136950Y-3500D02*Y-8750D01*
X137700Y-9500D01*
X136200Y-5750D02*X137700D01*
X139200Y-3500D02*Y-9500D01*
Y-7250D02*X139950Y-6500D01*
X141450D01*
X142200Y-7250D01*
Y-9500D01*
G54D64*X144000Y-5000D02*Y-5150D01*
G54D63*Y-7250D02*Y-9500D01*
X146250D02*X148500D01*
X149250Y-8750D01*
X148500Y-8000D02*X149250Y-8750D01*
X146250Y-8000D02*X148500D01*
X145500Y-7250D02*X146250Y-8000D01*
X145500Y-7250D02*X146250Y-6500D01*
X148500D01*
X149250Y-7250D01*
X145500Y-8750D02*X146250Y-9500D01*
X153750Y-8750D02*X154500Y-9500D01*
X153750Y-7550D02*Y-8750D01*
Y-7550D02*X154800Y-6500D01*
X155700D01*
X156750Y-7550D01*
Y-8750D01*
X156000Y-9500D02*X156750Y-8750D01*
X154500Y-9500D02*X156000D01*
X153750Y-5450D02*X154800Y-6500D01*
X153750Y-4250D02*Y-5450D01*
Y-4250D02*X154500Y-3500D01*
X156000D01*
X156750Y-4250D01*
Y-5450D01*
X155700Y-6500D02*X156750Y-5450D01*
X158550Y-9500D02*X159300D01*
X161100Y-8750D02*X161850Y-9500D01*
X161100Y-4250D02*Y-8750D01*
Y-4250D02*X161850Y-3500D01*
X163350D01*
X164100Y-4250D01*
Y-8750D01*
X163350Y-9500D02*X164100Y-8750D01*
X161850Y-9500D02*X163350D01*
X161100Y-8000D02*X164100Y-5000D01*
X165900Y-8750D02*X166650Y-9500D01*
X165900Y-4250D02*Y-8750D01*
Y-4250D02*X166650Y-3500D01*
X168150D01*
X168900Y-4250D01*
Y-8750D01*
X168150Y-9500D02*X168900Y-8750D01*
X166650Y-9500D02*X168150D01*
X165900Y-8000D02*X168900Y-5000D01*
X170700Y-8750D02*X171450Y-9500D01*
X170700Y-4250D02*Y-8750D01*
Y-4250D02*X171450Y-3500D01*
X172950D01*
X173700Y-4250D01*
Y-8750D01*
X172950Y-9500D02*X173700Y-8750D01*
X171450Y-9500D02*X172950D01*
X170700Y-8000D02*X173700Y-5000D01*
X175500Y-8750D02*X176250Y-9500D01*
X175500Y-4250D02*Y-8750D01*
Y-4250D02*X176250Y-3500D01*
X177750D01*
X178500Y-4250D01*
Y-8750D01*
X177750Y-9500D02*X178500Y-8750D01*
X176250Y-9500D02*X177750D01*
X175500Y-8000D02*X178500Y-5000D01*
X180300Y-8750D02*X181050Y-9500D01*
X180300Y-4250D02*Y-8750D01*
Y-4250D02*X181050Y-3500D01*
X182550D01*
X183300Y-4250D01*
Y-8750D01*
X182550Y-9500D02*X183300Y-8750D01*
X181050Y-9500D02*X182550D01*
X180300Y-8000D02*X183300Y-5000D01*
X185100Y-8750D02*X185850Y-9500D01*
X185100Y-4250D02*Y-8750D01*
Y-4250D02*X185850Y-3500D01*
X187350D01*
X188100Y-4250D01*
Y-8750D01*
X187350Y-9500D02*X188100Y-8750D01*
X185850Y-9500D02*X187350D01*
X185100Y-8000D02*X188100Y-5000D01*
X193350Y-7250D02*Y-9500D01*
Y-7250D02*X194100Y-6500D01*
X194850D01*
X195600Y-7250D01*
Y-9500D01*
Y-7250D02*X196350Y-6500D01*
X197100D01*
X197850Y-7250D01*
Y-9500D01*
X192600Y-6500D02*X193350Y-7250D01*
G54D64*X199650Y-5000D02*Y-5150D01*
G54D63*Y-7250D02*Y-9500D01*
X201150Y-3500D02*Y-8750D01*
X201900Y-9500D01*
X206850Y-7250D02*Y-9500D01*
Y-7250D02*X207600Y-6500D01*
X209100D01*
X206100D02*X206850Y-7250D01*
X211650Y-9500D02*X213900D01*
X210900Y-8750D02*X211650Y-9500D01*
X210900Y-7250D02*Y-8750D01*
Y-7250D02*X211650Y-6500D01*
X213150D01*
X213900Y-7250D01*
X210900Y-8000D02*X213900D01*
Y-7250D02*Y-8000D01*
X216450Y-6500D02*X218700D01*
X215700Y-7250D02*X216450Y-6500D01*
X215700Y-7250D02*Y-8750D01*
X216450Y-9500D01*
X218700D01*
X221250Y-3500D02*Y-8750D01*
X222000Y-9500D01*
X220500Y-5750D02*X222000D01*
X225750Y-6500D02*X226500Y-7250D01*
X224250Y-6500D02*X225750D01*
X223500Y-7250D02*X224250Y-6500D01*
X223500Y-7250D02*Y-8750D01*
X224250Y-9500D01*
X226500Y-6500D02*Y-8750D01*
X227250Y-9500D01*
X224250D02*X225750D01*
X226500Y-8750D01*
X229800Y-7250D02*Y-9500D01*
Y-7250D02*X230550Y-6500D01*
X231300D01*
X232050Y-7250D01*
Y-9500D01*
X229050Y-6500D02*X229800Y-7250D01*
X236100Y-6500D02*X236850Y-7250D01*
X234600Y-6500D02*X236100D01*
X233850Y-7250D02*X234600Y-6500D01*
X233850Y-7250D02*Y-8750D01*
X234600Y-9500D01*
X236100D01*
X236850Y-8750D01*
X233850Y-11000D02*X234600Y-11750D01*
X236100D01*
X236850Y-11000D01*
Y-6500D02*Y-11000D01*
X238650Y-3500D02*Y-8750D01*
X239400Y-9500D01*
X241650D02*X243900D01*
X240900Y-8750D02*X241650Y-9500D01*
X240900Y-7250D02*Y-8750D01*
Y-7250D02*X241650Y-6500D01*
X243150D01*
X243900Y-7250D01*
X240900Y-8000D02*X243900D01*
Y-7250D02*Y-8000D01*
X248400Y-6500D02*X251400D01*
X255900Y-8750D02*X256650Y-9500D01*
X255900Y-4250D02*Y-8750D01*
Y-4250D02*X256650Y-3500D01*
X258150D01*
X258900Y-4250D01*
Y-8750D01*
X258150Y-9500D02*X258900Y-8750D01*
X256650Y-9500D02*X258150D01*
X255900Y-8000D02*X258900Y-5000D01*
X260700Y-11000D02*X262200Y-9500D01*
X264000Y-8750D02*X264750Y-9500D01*
X264000Y-4250D02*Y-8750D01*
Y-4250D02*X264750Y-3500D01*
X266250D01*
X267000Y-4250D01*
Y-8750D01*
X266250Y-9500D02*X267000Y-8750D01*
X264750Y-9500D02*X266250D01*
X264000Y-8000D02*X267000Y-5000D01*
X272250Y-3500D02*Y-8750D01*
X273000Y-9500D01*
X271500Y-5750D02*X273000D01*
X274500Y-7250D02*Y-8750D01*
Y-7250D02*X275250Y-6500D01*
X276750D01*
X277500Y-7250D01*
Y-8750D01*
X276750Y-9500D02*X277500Y-8750D01*
X275250Y-9500D02*X276750D01*
X274500Y-8750D02*X275250Y-9500D01*
X282000Y-4250D02*X282750Y-3500D01*
X285000D01*
X285750Y-4250D01*
Y-5750D01*
X282000Y-9500D02*X285750Y-5750D01*
X282000Y-9500D02*X285750D01*
X287550Y-4250D02*X288300Y-3500D01*
X289800D01*
X290550Y-4250D01*
X289800Y-9500D02*X290550Y-8750D01*
X288300Y-9500D02*X289800D01*
X287550Y-8750D02*X288300Y-9500D01*
Y-6200D02*X289800D01*
X290550Y-4250D02*Y-5450D01*
Y-6950D02*Y-8750D01*
Y-6950D02*X289800Y-6200D01*
X290550Y-5450D02*X289800Y-6200D01*
X294600Y-3500D02*X295350Y-4250D01*
X293100Y-3500D02*X294600D01*
X292350Y-4250D02*X293100Y-3500D01*
X292350Y-4250D02*Y-8750D01*
X293100Y-9500D01*
X294600Y-6200D02*X295350Y-6950D01*
X292350Y-6200D02*X294600D01*
X293100Y-9500D02*X294600D01*
X295350Y-8750D01*
Y-6950D02*Y-8750D01*
X297150Y-4250D02*X297900Y-3500D01*
X300150D01*
X300900Y-4250D01*
Y-5750D01*
X297150Y-9500D02*X300900Y-5750D01*
X297150Y-9500D02*X300900D01*
X302700D02*X303450D01*
X305250Y-4250D02*X306000Y-3500D01*
X308250D01*
X309000Y-4250D01*
Y-5750D01*
X305250Y-9500D02*X309000Y-5750D01*
X305250Y-9500D02*X309000D01*
X310800Y-8750D02*X311550Y-9500D01*
X310800Y-4250D02*Y-8750D01*
Y-4250D02*X311550Y-3500D01*
X313050D01*
X313800Y-4250D01*
Y-8750D01*
X313050Y-9500D02*X313800Y-8750D01*
X311550Y-9500D02*X313050D01*
X310800Y-8000D02*X313800Y-5000D01*
X315600Y-7250D02*X318600Y-3500D01*
X315600Y-7250D02*X319350D01*
X318600Y-3500D02*Y-9500D01*
X321900D02*X324900Y-3500D01*
X321150D02*X324900D01*
X326700Y-4250D02*X327450Y-3500D01*
X329700D01*
X330450Y-4250D01*
Y-5750D01*
X326700Y-9500D02*X330450Y-5750D01*
X326700Y-9500D02*X330450D01*
X332250Y-7250D02*X335250Y-3500D01*
X332250Y-7250D02*X336000D01*
X335250Y-3500D02*Y-9500D01*
X337800Y-11000D02*X339300Y-9500D01*
X341100Y-4250D02*X341850Y-3500D01*
X343350D01*
X344100Y-4250D01*
X343350Y-9500D02*X344100Y-8750D01*
X341850Y-9500D02*X343350D01*
X341100Y-8750D02*X341850Y-9500D01*
Y-6200D02*X343350D01*
X344100Y-4250D02*Y-5450D01*
Y-6950D02*Y-8750D01*
Y-6950D02*X343350Y-6200D01*
X344100Y-5450D02*X343350Y-6200D01*
X346650Y-9500D02*X348900Y-6500D01*
Y-4250D02*Y-6500D01*
X348150Y-3500D02*X348900Y-4250D01*
X346650Y-3500D02*X348150D01*
X345900Y-4250D02*X346650Y-3500D01*
X345900Y-4250D02*Y-5750D01*
X346650Y-6500D01*
X348900D01*
X350700Y-4250D02*X351450Y-3500D01*
X352950D01*
X353700Y-4250D01*
X352950Y-9500D02*X353700Y-8750D01*
X351450Y-9500D02*X352950D01*
X350700Y-8750D02*X351450Y-9500D01*
Y-6200D02*X352950D01*
X353700Y-4250D02*Y-5450D01*
Y-6950D02*Y-8750D01*
Y-6950D02*X352950Y-6200D01*
X353700Y-5450D02*X352950Y-6200D01*
X356250Y-9500D02*X359250Y-3500D01*
X355500D02*X359250D01*
X361050Y-9500D02*X361800D01*
X363600Y-8750D02*X364350Y-9500D01*
X363600Y-4250D02*Y-8750D01*
Y-4250D02*X364350Y-3500D01*
X365850D01*
X366600Y-4250D01*
Y-8750D01*
X365850Y-9500D02*X366600Y-8750D01*
X364350Y-9500D02*X365850D01*
X363600Y-8000D02*X366600Y-5000D01*
X368400Y-8750D02*X369150Y-9500D01*
X368400Y-4250D02*Y-8750D01*
Y-4250D02*X369150Y-3500D01*
X370650D01*
X371400Y-4250D01*
Y-8750D01*
X370650Y-9500D02*X371400Y-8750D01*
X369150Y-9500D02*X370650D01*
X368400Y-8000D02*X371400Y-5000D01*
X373950Y-9500D02*X376950Y-3500D01*
X373200D02*X376950D01*
X378750Y-8750D02*X379500Y-9500D01*
X378750Y-7550D02*Y-8750D01*
Y-7550D02*X379800Y-6500D01*
X380700D01*
X381750Y-7550D01*
Y-8750D01*
X381000Y-9500D02*X381750Y-8750D01*
X379500Y-9500D02*X381000D01*
X378750Y-5450D02*X379800Y-6500D01*
X378750Y-4250D02*Y-5450D01*
Y-4250D02*X379500Y-3500D01*
X381000D01*
X381750Y-4250D01*
Y-5450D01*
X380700Y-6500D02*X381750Y-5450D01*
X384300Y-9500D02*X387300Y-3500D01*
X383550D02*X387300D01*
X389100Y-7250D02*X392100Y-3500D01*
X389100Y-7250D02*X392850D01*
X392100Y-3500D02*Y-9500D01*
X398100Y-7250D02*Y-9500D01*
Y-7250D02*X398850Y-6500D01*
X399600D01*
X400350Y-7250D01*
Y-9500D01*
Y-7250D02*X401100Y-6500D01*
X401850D01*
X402600Y-7250D01*
Y-9500D01*
X397350Y-6500D02*X398100Y-7250D01*
G54D64*X404400Y-5000D02*Y-5150D01*
G54D63*Y-7250D02*Y-9500D01*
X405900Y-3500D02*Y-8750D01*
X406650Y-9500D01*
X408900D02*X411150D01*
X411900Y-8750D01*
X411150Y-8000D02*X411900Y-8750D01*
X408900Y-8000D02*X411150D01*
X408150Y-7250D02*X408900Y-8000D01*
X408150Y-7250D02*X408900Y-6500D01*
X411150D01*
X411900Y-7250D01*
X408150Y-8750D02*X408900Y-9500D01*
X200750Y422201D02*Y416201D01*
X202700Y422201D02*X203750Y421151D01*
Y417251D01*
X202700Y416201D02*X203750Y417251D01*
X200000Y416201D02*X202700D01*
X200000Y422201D02*X202700D01*
X207800Y419201D02*X208550Y418451D01*
X206300Y419201D02*X207800D01*
X205550Y418451D02*X206300Y419201D01*
X205550Y418451D02*Y416951D01*
X206300Y416201D01*
X208550Y419201D02*Y416951D01*
X209300Y416201D01*
X206300D02*X207800D01*
X208550Y416951D01*
X211850Y422201D02*Y416951D01*
X212600Y416201D01*
X211100Y419951D02*X212600D01*
X214850Y416201D02*X217100D01*
X214100Y416951D02*X214850Y416201D01*
X214100Y418451D02*Y416951D01*
Y418451D02*X214850Y419201D01*
X216350D01*
X217100Y418451D01*
X214100Y417701D02*X217100D01*
Y418451D02*Y417701D01*
X218900Y419951D02*X219650D01*
X218900Y418451D02*X219650D01*
X227150Y422201D02*X227900Y421451D01*
X224900Y422201D02*X227150D01*
X224150Y421451D02*X224900Y422201D01*
X224150Y421451D02*Y419951D01*
X224900Y419201D01*
X227150D01*
X227900Y418451D01*
Y416951D01*
X227150Y416201D02*X227900Y416951D01*
X224900Y416201D02*X227150D01*
X224150Y416951D02*X224900Y416201D01*
X231950Y419201D02*X232700Y418451D01*
X230450Y419201D02*X231950D01*
X229700Y418451D02*X230450Y419201D01*
X229700Y418451D02*Y416951D01*
X230450Y416201D01*
X232700Y419201D02*Y416951D01*
X233450Y416201D01*
X230450D02*X231950D01*
X232700Y416951D01*
X236000Y422201D02*Y416951D01*
X236750Y416201D01*
X235250Y419951D02*X236750D01*
X240950Y416951D02*X241700Y416201D01*
X240950Y421451D02*Y416951D01*
Y421451D02*X241700Y422201D01*
X243200D01*
X243950Y421451D01*
Y416951D01*
X243200Y416201D02*X243950Y416951D01*
X241700Y416201D02*X243200D01*
X240950Y417701D02*X243950Y420701D01*
X248000Y422201D02*X248750Y421451D01*
X246500Y422201D02*X248000D01*
X245750Y421451D02*X246500Y422201D01*
X245750Y421451D02*Y416951D01*
X246500Y416201D01*
X248000Y419501D02*X248750Y418751D01*
X245750Y419501D02*X248000D01*
X246500Y416201D02*X248000D01*
X248750Y416951D01*
Y418751D02*Y416951D01*
X254000Y422201D02*Y416201D01*
X255950Y422201D02*X257000Y421151D01*
Y417251D01*
X255950Y416201D02*X257000Y417251D01*
X253250Y416201D02*X255950D01*
X253250Y422201D02*X255950D01*
X259550Y416201D02*X261800D01*
X258800Y416951D02*X259550Y416201D01*
X258800Y418451D02*Y416951D01*
Y418451D02*X259550Y419201D01*
X261050D01*
X261800Y418451D01*
X258800Y417701D02*X261800D01*
Y418451D02*Y417701D01*
X264350Y419201D02*X266600D01*
X263600Y418451D02*X264350Y419201D01*
X263600Y418451D02*Y416951D01*
X264350Y416201D01*
X266600D01*
X271100Y421451D02*X271850Y422201D01*
X274100D01*
X274850Y421451D01*
Y419951D01*
X271100Y416201D02*X274850Y419951D01*
X271100Y416201D02*X274850D01*
X276650Y416951D02*X277400Y416201D01*
X276650Y421451D02*Y416951D01*
Y421451D02*X277400Y422201D01*
X278900D01*
X279650Y421451D01*
Y416951D01*
X278900Y416201D02*X279650Y416951D01*
X277400Y416201D02*X278900D01*
X276650Y417701D02*X279650Y420701D01*
X281450Y421001D02*X282650Y422201D01*
Y416201D01*
X281450D02*X283700D01*
X285500Y418451D02*X288500Y422201D01*
X285500Y418451D02*X289250D01*
X288500Y422201D02*Y416201D01*
X293750Y416951D02*X294500Y416201D01*
X293750Y421451D02*Y416951D01*
Y421451D02*X294500Y422201D01*
X296000D01*
X296750Y421451D01*
Y416951D01*
X296000Y416201D02*X296750Y416951D01*
X294500Y416201D02*X296000D01*
X293750Y417701D02*X296750Y420701D01*
X299300Y416201D02*X302300Y422201D01*
X298550D02*X302300D01*
X304100Y419951D02*X304850D01*
X304100Y418451D02*X304850D01*
X306650D02*X309650Y422201D01*
X306650Y418451D02*X310400D01*
X309650Y422201D02*Y416201D01*
X314450Y422201D02*X315200Y421451D01*
X312950Y422201D02*X314450D01*
X312200Y421451D02*X312950Y422201D01*
X312200Y421451D02*Y416951D01*
X312950Y416201D01*
X314450Y419501D02*X315200Y418751D01*
X312200Y419501D02*X314450D01*
X312950Y416201D02*X314450D01*
X315200Y416951D01*
Y418751D02*Y416951D01*
X317000Y419951D02*X317750D01*
X317000Y418451D02*X317750D01*
X319550D02*X322550Y422201D01*
X319550Y418451D02*X323300D01*
X322550Y422201D02*Y416201D01*
X325100Y421451D02*X325850Y422201D01*
X327350D01*
X328100Y421451D01*
X327350Y416201D02*X328100Y416951D01*
X325850Y416201D02*X327350D01*
X325100Y416951D02*X325850Y416201D01*
Y419501D02*X327350D01*
X328100Y421451D02*Y420251D01*
Y418751D02*Y416951D01*
Y418751D02*X327350Y419501D01*
X328100Y420251D02*X327350Y419501D01*
X333350Y422201D02*Y416201D01*
X332600Y422201D02*X335600D01*
X336350Y421451D01*
Y419951D01*
X335600Y419201D02*X336350Y419951D01*
X333350Y419201D02*X335600D01*
X338150Y422201D02*Y416201D01*
Y422201D02*X340400Y419201D01*
X342650Y422201D01*
Y416201D01*
X350150Y422201D02*X350900Y421451D01*
X347900Y422201D02*X350150D01*
X347150Y421451D02*X347900Y422201D01*
X347150Y421451D02*Y416951D01*
X347900Y416201D01*
X350150D01*
X350900Y416951D01*
Y418451D02*Y416951D01*
X350150Y419201D02*X350900Y418451D01*
X348650Y419201D02*X350150D01*
X352700Y422201D02*Y416201D01*
Y422201D02*X354950Y419201D01*
X357200Y422201D01*
Y416201D01*
X359000Y422201D02*X362000D01*
X360500D02*Y416201D01*
X366500Y422201D02*Y416951D01*
X367250Y416201D01*
X368750D01*
X369500Y416951D01*
Y422201D02*Y416951D01*
X371300Y422201D02*X374300D01*
X372800D02*Y416201D01*
X377150D02*X379100D01*
X376100Y417251D02*X377150Y416201D01*
X376100Y421151D02*Y417251D01*
Y421151D02*X377150Y422201D01*
X379100D01*
X200000Y435701D02*Y431201D01*
Y435701D02*X201050Y437201D01*
X202700D01*
X203750Y435701D01*
Y431201D01*
X200000Y434201D02*X203750D01*
X205550D02*Y431951D01*
X206300Y431201D01*
X207800D01*
X208550Y431951D01*
Y434201D02*Y431951D01*
X211100Y437201D02*Y431951D01*
X211850Y431201D01*
X210350Y434951D02*X211850D01*
X213350Y437201D02*Y431201D01*
Y433451D02*X214100Y434201D01*
X215600D01*
X216350Y433451D01*
Y431201D01*
X218150Y433451D02*Y431951D01*
Y433451D02*X218900Y434201D01*
X220400D01*
X221150Y433451D01*
Y431951D01*
X220400Y431201D02*X221150Y431951D01*
X218900Y431201D02*X220400D01*
X218150Y431951D02*X218900Y431201D01*
X223700Y433451D02*Y431201D01*
Y433451D02*X224450Y434201D01*
X225950D01*
X222950D02*X223700Y433451D01*
X227750Y434951D02*X228500D01*
X227750Y433451D02*X228500D01*
X234050Y437201D02*X235250D01*
Y431951D01*
X234500Y431201D02*X235250Y431951D01*
X233750Y431201D02*X234500D01*
X233000Y431951D02*X233750Y431201D01*
X233000Y432701D02*Y431951D01*
X237050Y433451D02*Y431951D01*
Y433451D02*X237800Y434201D01*
X239300D01*
X240050Y433451D01*
Y431951D01*
X239300Y431201D02*X240050Y431951D01*
X237800Y431201D02*X239300D01*
X237050Y431951D02*X237800Y431201D01*
X241850Y437201D02*Y431201D01*
Y433451D02*X242600Y434201D01*
X244100D01*
X244850Y433451D01*
Y431201D01*
X247400Y433451D02*Y431201D01*
Y433451D02*X248150Y434201D01*
X248900D01*
X249650Y433451D01*
Y431201D01*
X246650Y434201D02*X247400Y433451D01*
X255200Y437201D02*X256400D01*
Y431951D01*
X255650Y431201D02*X256400Y431951D01*
X254900Y431201D02*X255650D01*
X254150Y431951D02*X254900Y431201D01*
X254150Y432701D02*Y431951D01*
X258200Y431201D02*X258950D01*
X263450Y437201D02*Y431201D01*
Y437201D02*X265700Y434201D01*
X267950Y437201D01*
Y431201D01*
X270500Y434201D02*X272750D01*
X269750Y433451D02*X270500Y434201D01*
X269750Y433451D02*Y431951D01*
X270500Y431201D01*
X272750D01*
X275300Y437201D02*Y431201D01*
X277250Y437201D02*X278300Y436151D01*
Y432251D01*
X277250Y431201D02*X278300Y432251D01*
X274550Y431201D02*X277250D01*
X274550Y437201D02*X277250D01*
X280100Y433451D02*Y431951D01*
Y433451D02*X280850Y434201D01*
X282350D01*
X283100Y433451D01*
Y431951D01*
X282350Y431201D02*X283100Y431951D01*
X280850Y431201D02*X282350D01*
X280100Y431951D02*X280850Y431201D01*
X285650Y433451D02*Y431201D01*
Y433451D02*X286400Y434201D01*
X287150D01*
X287900Y433451D01*
Y431201D01*
X284900Y434201D02*X285650Y433451D01*
X289700D02*Y431951D01*
Y433451D02*X290450Y434201D01*
X291950D01*
X292700Y433451D01*
Y431951D01*
X291950Y431201D02*X292700Y431951D01*
X290450Y431201D02*X291950D01*
X289700Y431951D02*X290450Y431201D01*
X294500Y434201D02*Y431951D01*
X295250Y431201D01*
X296750D01*
X297500Y431951D01*
Y434201D02*Y431951D01*
X301550Y434201D02*X302300Y433451D01*
X300050Y434201D02*X301550D01*
X299300Y433451D02*X300050Y434201D01*
X299300Y433451D02*Y431951D01*
X300050Y431201D01*
X301550D01*
X302300Y431951D01*
X299300Y429701D02*X300050Y428951D01*
X301550D01*
X302300Y429701D01*
Y434201D02*Y429701D01*
X304100Y437201D02*Y431201D01*
Y433451D02*X304850Y434201D01*
X306350D01*
X307100Y433451D01*
Y431201D01*
X200000Y452201D02*X203000D01*
X201500D02*Y446201D01*
G54D64*X204800Y450701D02*Y450551D01*
G54D63*Y448451D02*Y446201D01*
X207050Y452201D02*Y446951D01*
X207800Y446201D01*
X206300Y449951D02*X207800D01*
X209300Y452201D02*Y446951D01*
X210050Y446201D01*
X212300D02*X214550D01*
X211550Y446951D02*X212300Y446201D01*
X211550Y448451D02*Y446951D01*
Y448451D02*X212300Y449201D01*
X213800D01*
X214550Y448451D01*
X211550Y447701D02*X214550D01*
Y448451D02*Y447701D01*
X216350Y449951D02*X217100D01*
X216350Y448451D02*X217100D01*
X222350Y452201D02*Y446201D01*
X221600Y452201D02*X224600D01*
X225350Y451451D01*
Y449951D01*
X224600Y449201D02*X225350Y449951D01*
X222350Y449201D02*X224600D01*
X227900Y448451D02*Y446201D01*
Y448451D02*X228650Y449201D01*
X230150D01*
X227150D02*X227900Y448451D01*
X231950D02*Y446951D01*
Y448451D02*X232700Y449201D01*
X234200D01*
X234950Y448451D01*
Y446951D01*
X234200Y446201D02*X234950Y446951D01*
X232700Y446201D02*X234200D01*
X231950Y446951D02*X232700Y446201D01*
X239000Y449201D02*X239750Y448451D01*
X237500Y449201D02*X239000D01*
X236750Y448451D02*X237500Y449201D01*
X236750Y448451D02*Y446951D01*
X237500Y446201D01*
X239000D01*
X239750Y446951D01*
X236750Y444701D02*X237500Y443951D01*
X239000D01*
X239750Y444701D01*
Y449201D02*Y444701D01*
X242300Y448451D02*Y446201D01*
Y448451D02*X243050Y449201D01*
X244550D01*
X241550D02*X242300Y448451D01*
X248600Y449201D02*X249350Y448451D01*
X247100Y449201D02*X248600D01*
X246350Y448451D02*X247100Y449201D01*
X246350Y448451D02*Y446951D01*
X247100Y446201D01*
X249350Y449201D02*Y446951D01*
X250100Y446201D01*
X247100D02*X248600D01*
X249350Y446951D01*
X252650Y448451D02*Y446201D01*
Y448451D02*X253400Y449201D01*
X254150D01*
X254900Y448451D01*
Y446201D01*
Y448451D02*X255650Y449201D01*
X256400D01*
X257150Y448451D01*
Y446201D01*
X251900Y449201D02*X252650Y448451D01*
X259700D02*Y446201D01*
Y448451D02*X260450Y449201D01*
X261200D01*
X261950Y448451D01*
Y446201D01*
Y448451D02*X262700Y449201D01*
X263450D01*
X264200Y448451D01*
Y446201D01*
X258950Y449201D02*X259700Y448451D01*
G54D64*X266000Y450701D02*Y450551D01*
G54D63*Y448451D02*Y446201D01*
X268250Y448451D02*Y446201D01*
Y448451D02*X269000Y449201D01*
X269750D01*
X270500Y448451D01*
Y446201D01*
X267500Y449201D02*X268250Y448451D01*
X274550Y449201D02*X275300Y448451D01*
X273050Y449201D02*X274550D01*
X272300Y448451D02*X273050Y449201D01*
X272300Y448451D02*Y446951D01*
X273050Y446201D01*
X274550D01*
X275300Y446951D01*
X272300Y444701D02*X273050Y443951D01*
X274550D01*
X275300Y444701D01*
Y449201D02*Y444701D01*
X277100Y446951D02*X281600Y451451D01*
X284150Y452201D02*Y446201D01*
X283400Y452201D02*X286400D01*
X287150Y451451D01*
Y449951D01*
X286400Y449201D02*X287150Y449951D01*
X284150Y449201D02*X286400D01*
X288950Y448451D02*Y446951D01*
Y448451D02*X289700Y449201D01*
X291200D01*
X291950Y448451D01*
Y446951D01*
X291200Y446201D02*X291950Y446951D01*
X289700Y446201D02*X291200D01*
X288950Y446951D02*X289700Y446201D01*
X293750Y449201D02*Y446951D01*
X294500Y446201D01*
X295250D01*
X296000Y446951D01*
Y449201D02*Y446951D01*
X296750Y446201D01*
X297500D01*
X298250Y446951D01*
Y449201D02*Y446951D01*
X300800Y446201D02*X303050D01*
X300050Y446951D02*X300800Y446201D01*
X300050Y448451D02*Y446951D01*
Y448451D02*X300800Y449201D01*
X302300D01*
X303050Y448451D01*
X300050Y447701D02*X303050D01*
Y448451D02*Y447701D01*
X305600Y448451D02*Y446201D01*
Y448451D02*X306350Y449201D01*
X307850D01*
X304850D02*X305600Y448451D01*
X313100Y452201D02*Y446201D01*
X315050Y452201D02*X316100Y451151D01*
Y447251D01*
X315050Y446201D02*X316100Y447251D01*
X312350Y446201D02*X315050D01*
X312350Y452201D02*X315050D01*
X320150Y449201D02*X320900Y448451D01*
X318650Y449201D02*X320150D01*
X317900Y448451D02*X318650Y449201D01*
X317900Y448451D02*Y446951D01*
X318650Y446201D01*
X320900Y449201D02*Y446951D01*
X321650Y446201D01*
X318650D02*X320150D01*
X320900Y446951D01*
X323450Y449201D02*Y446951D01*
X324200Y446201D01*
X325700D01*
X326450Y446951D01*
Y449201D02*Y446951D01*
X330500Y449201D02*X331250Y448451D01*
X329000Y449201D02*X330500D01*
X328250Y448451D02*X329000Y449201D01*
X328250Y448451D02*Y446951D01*
X329000Y446201D01*
X330500D01*
X331250Y446951D01*
X328250Y444701D02*X329000Y443951D01*
X330500D01*
X331250Y444701D01*
Y449201D02*Y444701D01*
X333050Y452201D02*Y446201D01*
Y448451D02*X333800Y449201D01*
X335300D01*
X336050Y448451D01*
Y446201D01*
X338600Y452201D02*Y446951D01*
X339350Y446201D01*
X337850Y449951D02*X339350D01*
X341600Y446201D02*X343850D01*
X340850Y446951D02*X341600Y446201D01*
X340850Y448451D02*Y446951D01*
Y448451D02*X341600Y449201D01*
X343100D01*
X343850Y448451D01*
X340850Y447701D02*X343850D01*
Y448451D02*Y447701D01*
X346400Y448451D02*Y446201D01*
Y448451D02*X347150Y449201D01*
X348650D01*
X345650D02*X346400Y448451D01*
X350450Y452201D02*Y446201D01*
Y446951D02*X351200Y446201D01*
X352700D01*
X353450Y446951D01*
Y448451D02*Y446951D01*
X352700Y449201D02*X353450Y448451D01*
X351200Y449201D02*X352700D01*
X350450Y448451D02*X351200Y449201D01*
X355250Y448451D02*Y446951D01*
Y448451D02*X356000Y449201D01*
X357500D01*
X358250Y448451D01*
Y446951D01*
X357500Y446201D02*X358250Y446951D01*
X356000Y446201D02*X357500D01*
X355250Y446951D02*X356000Y446201D01*
X362300Y449201D02*X363050Y448451D01*
X360800Y449201D02*X362300D01*
X360050Y448451D02*X360800Y449201D01*
X360050Y448451D02*Y446951D01*
X360800Y446201D01*
X363050Y449201D02*Y446951D01*
X363800Y446201D01*
X360800D02*X362300D01*
X363050Y446951D01*
X366350Y448451D02*Y446201D01*
Y448451D02*X367100Y449201D01*
X368600D01*
X365600D02*X366350Y448451D01*
X373400Y452201D02*Y446201D01*
X372650D02*X373400Y446951D01*
X371150Y446201D02*X372650D01*
X370400Y446951D02*X371150Y446201D01*
X370400Y448451D02*Y446951D01*
Y448451D02*X371150Y449201D01*
X372650D01*
X373400Y448451D01*
X377900Y449201D02*X380900D01*
X385400Y452201D02*Y446201D01*
Y452201D02*X388400D01*
X385400Y449501D02*X387650D01*
X392450Y449201D02*X393200Y448451D01*
X390950Y449201D02*X392450D01*
X390200Y448451D02*X390950Y449201D01*
X390200Y448451D02*Y446951D01*
X390950Y446201D01*
X393200Y449201D02*Y446951D01*
X393950Y446201D01*
X390950D02*X392450D01*
X393200Y446951D01*
X395750Y452201D02*Y446201D01*
Y446951D02*X396500Y446201D01*
X398000D01*
X398750Y446951D01*
Y448451D02*Y446951D01*
X398000Y449201D02*X398750Y448451D01*
X396500Y449201D02*X398000D01*
X395750Y448451D02*X396500Y449201D01*
X401300Y448451D02*Y446201D01*
Y448451D02*X402050Y449201D01*
X403550D01*
X400550D02*X401300Y448451D01*
G54D64*X405350Y450701D02*Y450551D01*
G54D63*Y448451D02*Y446201D01*
X407600Y449201D02*X409850D01*
X406850Y448451D02*X407600Y449201D01*
X406850Y448451D02*Y446951D01*
X407600Y446201D01*
X409850D01*
X413900Y449201D02*X414650Y448451D01*
X412400Y449201D02*X413900D01*
X411650Y448451D02*X412400Y449201D01*
X411650Y448451D02*Y446951D01*
X412400Y446201D01*
X414650Y449201D02*Y446951D01*
X415400Y446201D01*
X412400D02*X413900D01*
X414650Y446951D01*
X417950Y452201D02*Y446951D01*
X418700Y446201D01*
X417200Y449951D02*X418700D01*
G54D64*X420200Y450701D02*Y450551D01*
G54D63*Y448451D02*Y446201D01*
X421700Y448451D02*Y446951D01*
Y448451D02*X422450Y449201D01*
X423950D01*
X424700Y448451D01*
Y446951D01*
X423950Y446201D02*X424700Y446951D01*
X422450Y446201D02*X423950D01*
X421700Y446951D02*X422450Y446201D01*
X427250Y448451D02*Y446201D01*
Y448451D02*X428000Y449201D01*
X428750D01*
X429500Y448451D01*
Y446201D01*
X426500Y449201D02*X427250Y448451D01*
X434750Y452201D02*Y446201D01*
X436700Y452201D02*X437750Y451151D01*
Y447251D01*
X436700Y446201D02*X437750Y447251D01*
X434000Y446201D02*X436700D01*
X434000Y452201D02*X436700D01*
X440300Y448451D02*Y446201D01*
Y448451D02*X441050Y449201D01*
X442550D01*
X439550D02*X440300Y448451D01*
X446600Y449201D02*X447350Y448451D01*
X445100Y449201D02*X446600D01*
X444350Y448451D02*X445100Y449201D01*
X444350Y448451D02*Y446951D01*
X445100Y446201D01*
X447350Y449201D02*Y446951D01*
X448100Y446201D01*
X445100D02*X446600D01*
X447350Y446951D01*
X449900Y449201D02*Y446951D01*
X450650Y446201D01*
X451400D01*
X452150Y446951D01*
Y449201D02*Y446951D01*
X452900Y446201D01*
X453650D01*
X454400Y446951D01*
Y449201D02*Y446951D01*
G54D64*X456200Y450701D02*Y450551D01*
G54D63*Y448451D02*Y446201D01*
X458450Y448451D02*Y446201D01*
Y448451D02*X459200Y449201D01*
X459950D01*
X460700Y448451D01*
Y446201D01*
X457700Y449201D02*X458450Y448451D01*
X464750Y449201D02*X465500Y448451D01*
X463250Y449201D02*X464750D01*
X462500Y448451D02*X463250Y449201D01*
X462500Y448451D02*Y446951D01*
X463250Y446201D01*
X464750D01*
X465500Y446951D01*
X462500Y444701D02*X463250Y443951D01*
X464750D01*
X465500Y444701D01*
Y449201D02*Y444701D01*
M02*
