G04 start of page 8 for group -4078 idx -4078 *
G04 Title: Programming/Power Daughterboard, bottomsilk *
G04 Creator: pcb 20110918 *
G04 CreationDate: Sat 06 Dec 2014 07:46:43 PM GMT UTC *
G04 For: jjmcd *
G04 Format: Gerber/RS-274X *
G04 PCB-Dimensions: 236220 393701 *
G04 PCB-Coordinate-Origin: lower left *
%MOIN*%
%FSLAX25Y25*%
%LNBOTTOMSILK*%
%ADD58C,0.0100*%
G54D58*X35249Y393201D02*Y368201D01*
X65249Y393201D02*Y368201D01*
X35249D02*X65249D01*
X35249Y393201D02*X65249D01*
X35249Y314461D02*Y289461D01*
X65249Y314461D02*Y289461D01*
X35249D02*X65249D01*
X35249Y314461D02*X65249D01*
X35249Y156980D02*Y131980D01*
X65249Y156980D02*Y131980D01*
X35249D02*X65249D01*
X35249Y156980D02*X65249D01*
X34958Y78240D02*Y53240D01*
X64958Y78240D02*Y53240D01*
X34958D02*X64958D01*
X34958Y78240D02*X64958D01*
X34958Y235720D02*Y210720D01*
X64958Y235720D02*Y210720D01*
X34958D02*X64958D01*
X34958Y235720D02*X64958D01*
M02*
