G04 start of page 6 for group -4062 idx -4062 *
G04 Title: Programming/Power Daughterboard, soldermask *
G04 Creator: pcb 20110918 *
G04 CreationDate: Sat 06 Dec 2014 07:46:43 PM GMT UTC *
G04 For: jjmcd *
G04 Format: Gerber/RS-274X *
G04 PCB-Dimensions: 236220 393701 *
G04 PCB-Coordinate-Origin: lower left *
%MOIN*%
%FSLAX25Y25*%
%LNBOTTOMMASK*%
%ADD54R,0.0700X0.0700*%
%ADD53R,0.0450X0.0450*%
%ADD52C,0.0520*%
%ADD51C,0.1020*%
%ADD50C,0.0660*%
%ADD49C,0.0001*%
G54D49*G36*
X57385Y326001D02*Y319401D01*
X63985D01*
Y326001D01*
X57385D01*
G37*
G36*
Y247261D02*Y240661D01*
X63985D01*
Y247261D01*
X57385D01*
G37*
G36*
X56700Y168520D02*Y161920D01*
X63300D01*
Y168520D01*
X56700D01*
G37*
G36*
X57385Y89780D02*Y83180D01*
X63985D01*
Y89780D01*
X57385D01*
G37*
G36*
X56700Y11040D02*Y4440D01*
X63300D01*
Y11040D01*
X56700D01*
G37*
G54D50*X50685Y322701D03*
Y243961D03*
X50000Y165220D03*
X50685Y86480D03*
X50000Y7740D03*
X40685Y322701D03*
Y243961D03*
X40000Y165220D03*
X40685Y86480D03*
X40000Y7740D03*
X30685Y322701D03*
Y243961D03*
X30000Y165220D03*
X30685Y86480D03*
X30000Y7740D03*
X20685Y322701D03*
Y243961D03*
X20000Y165220D03*
X20685Y86480D03*
X20000Y7740D03*
X10685Y322701D03*
Y243961D03*
X10000Y165220D03*
X10685Y86480D03*
X10000Y7740D03*
G54D51*X166496Y367701D03*
Y288961D03*
X204496Y367701D03*
G54D52*X187496Y330701D03*
X182496Y340701D03*
X192496D03*
X177496Y330701D03*
X172496Y340701D03*
G54D49*G36*
X137385Y391001D02*Y384401D01*
X143985D01*
Y391001D01*
X137385D01*
G37*
G54D50*X130685Y387701D03*
X120685D03*
X110685D03*
X100685D03*
X90685D03*
G54D49*G36*
X137385Y312261D02*Y305661D01*
X143985D01*
Y312261D01*
X137385D01*
G37*
G54D50*X130685Y308961D03*
X120685D03*
X110685D03*
X100685D03*
X90685D03*
G54D52*X197496Y330701D03*
G54D51*X204496Y288961D03*
G54D52*X187496Y251961D03*
X197496D03*
X177496D03*
X182496Y261961D03*
X192496D03*
X172496D03*
G54D51*X165811Y210220D03*
G54D49*G36*
X136700Y233520D02*Y226920D01*
X143300D01*
Y233520D01*
X136700D01*
G37*
G54D51*X203811Y210220D03*
G54D52*X186811Y173220D03*
X196811D03*
X176811D03*
X181811Y183220D03*
X191811D03*
X171811D03*
G54D50*X130000Y230220D03*
X120000D03*
X110000D03*
X100000D03*
X90000D03*
G54D51*X166496Y131480D03*
X165811Y52740D03*
X204496Y131480D03*
G54D52*X187496Y94480D03*
X197496D03*
X177496D03*
X182496Y104480D03*
X192496D03*
X172496D03*
G54D49*G36*
X137385Y154780D02*Y148180D01*
X143985D01*
Y154780D01*
X137385D01*
G37*
G36*
X136700Y76040D02*Y69440D01*
X143300D01*
Y76040D01*
X136700D01*
G37*
G54D50*X130685Y151480D03*
X130000Y72740D03*
X120000D03*
X110000D03*
X100000D03*
X90000D03*
X120685Y151480D03*
X110685D03*
X100685D03*
X90685D03*
G54D51*X203811Y52740D03*
G54D52*X186811Y15740D03*
X196811D03*
X176811D03*
X181811Y25740D03*
X191811D03*
X171811D03*
G54D53*X55367Y289461D02*Y284961D01*
X52808Y289461D02*Y284961D01*
X50249Y289461D02*Y284961D01*
X47690Y289461D02*Y284961D01*
X45131Y289461D02*Y284961D01*
X41095Y289461D02*Y284961D01*
G54D54*X27499Y291961D02*X34749D01*
X27499Y303961D02*X34749D01*
G54D53*X59403Y289461D02*Y284961D01*
G54D54*X65749Y291961D02*X72999D01*
X65749Y303961D02*X72999D01*
G54D53*X47690Y368201D02*Y363701D01*
X45131Y368201D02*Y363701D01*
X41095Y368201D02*Y363701D01*
X55367Y368201D02*Y363701D01*
X52808Y368201D02*Y363701D01*
X50249Y368201D02*Y363701D01*
X59403Y368201D02*Y363701D01*
G54D54*X65749Y370701D02*X72999D01*
X27499D02*X34749D01*
X65749Y382701D02*X72999D01*
X27499D02*X34749D01*
G54D53*X55367Y131980D02*Y127480D01*
X52808Y131980D02*Y127480D01*
X50249Y131980D02*Y127480D01*
X47690Y131980D02*Y127480D01*
X45131Y131980D02*Y127480D01*
X41095Y131980D02*Y127480D01*
X59403Y131980D02*Y127480D01*
G54D54*X65749Y134480D02*X72999D01*
X27499D02*X34749D01*
X65749Y146480D02*X72999D01*
X27499D02*X34749D01*
G54D53*X55076Y53240D02*Y48740D01*
X52517Y53240D02*Y48740D01*
X49958Y53240D02*Y48740D01*
X47399Y53240D02*Y48740D01*
X44840Y53240D02*Y48740D01*
X40804Y53240D02*Y48740D01*
X59112Y53240D02*Y48740D01*
G54D54*X65458Y55740D02*X72708D01*
X27208D02*X34458D01*
X65458Y67740D02*X72708D01*
X27208D02*X34458D01*
G54D53*X55076Y210720D02*Y206220D01*
X52517Y210720D02*Y206220D01*
X49958Y210720D02*Y206220D01*
X47399Y210720D02*Y206220D01*
X44840Y210720D02*Y206220D01*
X40804Y210720D02*Y206220D01*
X59112Y210720D02*Y206220D01*
G54D54*X65458Y213220D02*X72708D01*
X27208D02*X34458D01*
X65458Y225220D02*X72708D01*
X27208D02*X34458D01*
M02*
